4      7.5   10.0
1.0    1.2   2.0    3.2      3    1   1   8  8  4
1.     1.     1.     1.      1.01
1.     1.     1.     1.      0.97
1.     1.    1.      1.      1.1
1.     0.97   0.905  0.854   1.028
1.     0.995  0.992  0.98    0.96
1.     1.016  1.021  1.021   1.070
1.     1.001  1.004  1.005   1.05
1.     1.     1.     1.01    0.945
1.     1.007  1.027  1.041   1.035
1.     1.059  1.179  1.274   1.
1.     1.     1.     1.      1.
1.     1.077  1.262  1.398   0.99
1.     1.01   1.043  1.078   1.
1.     1.053  1.18   1.277   0.94
1.     1.043  1.72   1.257   0.979
1.     1.043  1.167  1.231   0.975
1.     1.02   1.071  1.094   0.951
1.     1.01   1.043  1.078   0.969
1.     0.985  0.958  0.927   0.968                   
          95        5        0       80     24.5       35        0        0        0        0    35.  19.25  28.  16.35
        0.66     0.72     0.78     0.84     0.90     0.95     1.00     1.04
       11.45    12.20    13.00    13.80    14.60    15.45    16.30    17.20
        0.39     0.43     0.47     0.52     0.58     0.65     0.72     0.80
       24.50    26.00    27.50    29.00    30.50    32.00    33.50    35.00
        4.40     4.45     4.53     4.55     4.50     4.45     4.25     4.05
        0.61     0.68     0.73     0.79     0.85     0.92     1.00     1.09
       18.80    19.05    19.20    19.10    18.35    17.25    16.00    14.70
        0.83     0.78     0.72     0.67     0.60     0.52     0.43     0.35
        4.28     4.38     4.45     4.50     4.50     4.50     4.45     4.40
        8.95     8.20     7.40     6.60     5.90     5.20     4.50     3.85
        0.92     0.82     0.71     0.62     0.50     0.40     0.30     0.20
       10.25     9.12     7.90     6.80     6.00     5.30     4.60     3.85
        8.15     6.90     5.80     4.85     4.00     3.15     2.40     1.60
        1.30     1.60     1.98     2.40     3.05     3.75     4.60     5.50
        0.64     0.70     0.75     0.80     0.85     0.90     0.95     1.00
        0.33     0.35     0.35     0.30     0.25     0.20     0.15     0.10
        0.38     0.42     0.46     0.50     0.55     0.60     0.65     0.70
        1.75     1.70     1.67     1.63     1.60     1.55     1.50     1.40
        1.41     1.50     1.60     1.73     1.92     2.26     2.70     3.17
          90       10        0       80     24.5       35        0        0        0        0    33.4   19.2   27.0  16.25
        0.66     0.72     0.78     0.84     0.90     0.95     1.00     1.04
       11.55    12.30    13.15    14.00    14.85    15.75    16.65    17.60
        0.39     0.43     0.47     0.52     0.58     0.65     0.72     0.80
       24.50    26.00    27.50    29.00    30.50    32.00    33.50    35.00
        4.40     4.45     4.53     4.55     4.50     4.45     4.25     4.05
        0.61     0.68     0.73     0.79     0.85     0.92     1.00     1.09
       18.80    19.05    19.20    19.00    18.35    17.05    15.70    14.25
        0.83     0.78     0.72     0.67     0.60     0.52     0.43     0.35
        4.28     4.38     4.45     4.50     4.50     4.50     4.45     4.40
        8.95     8.20     7.40     6.60     5.90     5.20     4.50     3.85
        0.92     0.82     0.71     0.62     0.50     0.40     0.30     0.20
       10.15     9.10     7.85     6.75     5.90     5.25     4.55     3.80
        8.15     6.82     5.70     4.80     3.85     3.10     2.40     1.60
        1.30     1.60     1.98     2.40     3.05     3.75     4.60     5.50
        0.64     0.70     0.75     0.80     0.85     0.90     0.95     1.00
        0.33     0.35     0.35     0.30     0.25     0.20     0.15     0.10
        0.38     0.42     0.46     0.50     0.55     0.60     0.65     0.70
        1.75     1.70     1.67     1.63     1.60     1.55     1.50     1.40
        1.41     1.50     1.60     1.73     1.92     2.26     2.70     3.27
          90        5        5       80       23     33.5      1.5      2.5        1        0    32.5   18.4   27.2  15.95
        0.60     0.66     0.72     0.78     0.84     0.90     0.95     1.00
       10.75    11.50    12.30    13.05    13.90    14.80    15.70    16.60
        0.36     0.41     0.46     0.51     0.57     0.64     0.72     0.80
       23.00    24.50    26.00    27.50    29.00    30.50    32.00    33.50
        4.00     4.20     4.30     4.40     4.30     4.10     3.95     3.80
        0.53     0.62     0.70     0.76     0.82     0.89     0.96     1.06
       17.00    17.95    18.20    18.40    18.15    17.40    16.20    14.90
        0.82     0.76     0.71     0.65     0.60     0.53     0.45     0.37
        3.70     4.00     4.20     4.35     4.35     4.33     4.30     4.25
        9.00     8.10     7.30     6.35     5.40     4.65     4.00     3.20
        0.90     0.80     0.71     0.62     0.53     0.43     0.35     0.25
       10.50     8.75     7.35     6.30     5.35     4.64     4.10     3.50
        8.50     6.90     5.85     4.63     3.93     3.05     2.00     1.00
        2.55     2.90     3.25     3.75     4.25     4.85     5.65     6.60
        3.05     3.15     3.20     3.25     3.30     3.35     3.40     3.45
        0.90     0.85     0.70     0.60     0.50     0.40     0.30     0.20
        0.35     0.39     0.43     0.47     0.51     0.57     0.62     0.67
        2.10     2.05     1.95     1.85     1.80     1.75     1.70     1.65
        1.39     1.51     1.67     1.78     1.98     2.22     2.65     3.20
          85       10        5       80       23     33.5      1.5      2.5        1        0    31.0  18.3  26.2  15.85
        0.60     0.66     0.72     0.78     0.84     0.90     0.95     1.00
       10.85    11.65    12.45    13.25    14.10    15.10    16.05    17.05
        0.36     0.41     0.46     0.51     0.57     0.64     0.72     0.80
       23.00    24.50    26.00    27.50    29.00    30.50    32.00    33.50
        4.00     4.20     4.30     4.40     4.30     4.10     3.95     3.80
        0.53     0.62     0.70     0.76     0.82     0.89     0.96     1.06
       17.20    17.80    18.20    18.10    17.70    16.90    15.90    14.30
        0.82     0.76     0.71     0.65     0.60     0.53     0.45     0.37
        3.70     4.00     4.20     4.35     4.35     4.33     4.30     4.25
        9.00     8.10     7.30     6.35     5.40     4.65     4.00     3.25
        0.82     0.73     0.64     0.55     0.47     0.38     0.30     0.20
       10.40     8.65     7.25     6.20     5.30     4.60     3.85     3.25
        8.35     7.05     5.85     4.85     4.15     3.25     2.05     1.15
        2.55     2.90     3.25     3.75     4.25     4.85     5.65     6.60
        3.05     3.15     3.20     3.25     3.30     3.35     3.40     3.45
        0.90     0.85     0.70     0.60     0.50     0.40     0.30     0.20
        0.35     0.39     0.43     0.47     0.51     0.57     0.62     0.67
        2.10     2.05     1.95     1.85     1.80     1.75     1.70     1.65
        1.42     1.53     1.69     1.83     2.04     2.31     2.85     3.45
