   2.6075104222740E-001 -4.1922507583852E-002  2.0559359976692E-003
  -1.7027145829743E-005  2.0665516124638E-003  4.9926085159535E-006
  -2.1908668827366E-004  2.1424050589598E-005  8.6096187240704E-006
         10.78396905522100        -1.17667904345380  6.1597863947784E-002
  -6.5639484783128E-004 -3.2464486158625E-001  2.3840386257250E-003
   2.7864271224457E-002 -6.5638570780835E-004  3.8232755363779E-005
  -5.7805996138654E-001  6.5724637442882E-002 -2.3072527761399E-003
   2.4698811290835E-005  5.5948388320397E-002 -6.4096174205055E-004
  -5.5956518307704E-003  1.3591144013816E-004  4.1818023959597E-005
          7.24565569351790 -3.1126074820287E-001  1.6099130738400E-002
  -2.3800004216567E-004 -2.9675450539568E-001  2.5348533176073E-003
   2.1753809569638E-002 -4.9654393374553E-004 -1.2636732397359E-004
  -2.3673063224301E-001  3.8841114800116E-002  7.9747814657982E-005
   3.4249501981849E-006  6.9094348677650E-003 -8.0892741491569E-006
  -7.8705180242838E-004  3.2455209791965E-006  2.8404272977730E-006
          9.84902508728320  2.4087095636732E-001  1.1900691190679E-002
  -4.9245493311164E-004        -1.25763162469950  1.8506617573883E-002
   1.0969361629144E-001 -2.0680687220950E-003 -1.1335076734290E-003
          5.38286800768930 -4.9853903356636E-001  2.4191346982369E-002
  -4.0713573969592E-004 -1.2741791425131E-001  8.6166277691641E-004
   6.7954186290813E-003 -1.5732004506628E-004 -2.7599258297162E-005
         10.23180042116200        -1.63810521629300  8.8159582552325E-002
  -1.3185942458038E-003 -1.0247651964746E-001  2.5053296327623E-004
   3.1167557573516E-002 -8.1429073405889E-004 -2.0217201889572E-004
          3.17334092225530  9.6718909138507E-001 -3.6364666205148E-002
   2.5878280235929E-004 -1.4819022166182E-001  3.1305769580701E-003
   6.1545458491350E-003 -1.7628487040980E-004 -2.1213614458497E-004
   1.1078024144183E-001  1.4155119410086E-002 -2.4272018093910E-004
  -5.0714224804087E-006  7.4213583502354E-004 -5.1394630433701E-005
  -8.0427053187764E-005 -7.2750009857781E-006  1.4780698574542E-006
         18.82901385428600 -7.5794596749747E-001  8.1259605899219E-003
  -4.2550413513165E-005 -3.0804161309766E-001  1.8092300157382E-003
   1.1417609571791E-002 -7.9851704244621E-005 -4.6057702974169E-005
         35.83680842673500        -1.46316453385040  2.5545004768722E-002
  -3.4659060969108E-004 -9.4103467777949E-001  7.2556565550691E-003
   2.4009638704329E-002 -1.0047051568809E-004 -1.6558351121655E-004
         16.44478790647800        -1.72675636660950  5.5283869214372E-002
  -3.9583090707572E-004 -3.6383021013181E-001  5.5594275492180E-004
   1.9979614072347E-002 -8.0690672421788E-005  1.4604532294733E-004
   9.9288655515012E-002  1.2618374703716E-001  1.6344302563987E-003
  -4.3108892334713E-005 -1.8107275222134E-001  2.1196829437073E-003
   1.3412590635700E-002 -2.5329826103954E-004 -1.1365653926399E-004
         -3.09595219384750  3.9768544865558E-001 -1.2420923491613E-002
   1.1932776749868E-004 -7.9358000928520E-002  1.8660788102428E-003
   6.9976399083680E-003 -1.2350099967658E-004 -7.3467619270931E-005
         -2.42114568171250  1.7647146627595E-002  8.3398605393052E-003
  -1.7866517784955E-004  6.3190752493812E-003 -2.3723035726867E-004
   6.8633346277226E-003 -2.3416790502847E-004 -2.4757707502373E-005
         -3.09996147491920  3.6437177269540E-001 -7.5384218552012E-003
   6.1566951104650E-006  8.1349255244264E-001 -5.6771170313310E-003
  -3.6228068383911E-002  5.6784273373750E-004 -7.8146365850438E-005
   6.0908383303011E-001         3.08509690916760 -1.9167538667550E-001
   3.0515077002237E-003         2.85058973090290 -3.0499048945910E-002
  -2.0385316147614E-001  3.7607165612852E-003  1.6671779838619E-003
35.186,-0.31702,-0.0020238
17.874,-0.093643,0.
26.0,-0.2,0.
0.,-0.014,0.167,0.026,-0.073,0.12,0.021,0.,0.021,-0.042,0.,0.04,0.03,
-0.034,-0.031,-0.037,0.0,-0.039,-0.025
4.2,1.2