﻿NSA12
100NSA12
EUR12
102EUR12
PAC12
117PAC12
LUB12
100LUB12
NSA12
100NSA10
EUR10
102EUR10
PAC10
117PAC10
LUB10
100LUB10
NSA08
100NSA08
EUR08
102EUR08
PAC08
117PAC08
LUB08
100LUB08
EUR10
102EUR10
