         -2.04576543289090  1.2685219486829E-001 -1.5920781920037E-003
   1.4146090565222E-005  1.5198985893433E-001 -2.5809082895279E-003
  -6.4757740564370E-003  4.6663727250835E-005  9.4552224194790E-005
        -44.04018512272600         5.37434670137640 -1.7542438249779E-001
   2.2183641950477E-003         1.45586639999460 -1.0333994687127E-002
  -1.2938455305470E-001  2.4746472639093E-003  7.2126690083734E-004
         -1.91150617105180  2.9593347032704E-001 -1.4331275714198E-002
   2.4176954725874E-004 -1.9604056501996E-002  2.6763668499704E-004
   1.7450519750931E-004  4.7766019283326E-006  1.9302371122955E-005
        -22.60179011485000         2.20035150805000 -5.2019032893285E-002
   2.6363168692682E-004         1.17512125189050 -1.7474647262928E-002
  -6.6848299997813E-002  8.5611405021697E-004  6.2304036825804E-004
          2.04377777739700 -8.4080246874895E-002  8.7962962833801E-004
   2.3148148162714E-005 -2.9793650780170E-002  6.8253968239347E-004
  -2.8355379198035E-003  1.2235449736907E-004 -2.2045854721517E-007
       -112.07296292824000        10.36772633389200 -2.5285493815207E-001
   2.0447530850701E-003         4.39874338504050 -7.2308201045664E-002
  -2.0432833618852E-001  2.9210758242655E-004  3.0393885943799E-003
        -27.76390122660300         2.52141015007930 -6.8014403264987E-002
   5.9927983508443E-004         1.48530775986170 -2.3008377422077E-002
  -9.1658044268215E-002  1.0677542618907E-003  1.0295659414694E-003
         23.73932096748800        -2.69378429149260  1.1511059663878E-001
  -1.5882201638312E-003 -5.4983906455055E-001  6.7912257421411E-003
   4.8010606456677E-002 -8.9653145130228E-004 -3.9106897869763E-004
       -100.31283948264000         8.68766803601440 -2.3497942378833E-001
   2.4176954723503E-003         6.53856260939830 -1.0914902997345E-001
  -3.3926685277396E-001  2.8751469714608E-003  4.3001665682840E-003
        -40.00117281315000         4.94506001102480 -1.8347479414843E-001
   2.1283436203820E-003         1.07659832359490 -6.5597442584039E-003
  -1.0046945417831E-001  2.0153586115575E-003  4.0907309382268E-004
         38.32296294915000        -3.07031892861700  8.2716049334506E-002
  -6.5586419698320E-004        -1.06529100482200  1.0582010101063E-004
   8.8025426186848E-002 -1.7305996467334E-003 -8.6346266685308E-005
         23.12790122039800 -5.7573730991159E-001  1.1856995834411E-002
  -5.5298353851808E-004  1.0259700223238E-001  8.4369488489181E-003
  -6.4274936345227E-002  2.0043356854347E-003 -2.9786400135613E-004
         55.45117282466000        -4.80536865417400  1.1842849789137E-001
  -2.7649176897078E-004        -2.19469356209460  1.5488315691223E-002
   1.4283276990325E-001 -2.3460464426958E-003 -2.9774152434933E-004
          6.13061726570240        -2.26427297483010  1.2757201639948E-001
  -1.9547325096026E-003  4.4302469201021E-001 -1.8827160563044E-003
   1.9163237265925E-002 -8.7448559598839E-004 -1.8861453734561E-005
         18.38728391713200        -4.06127914611490  2.2456275708823E-001
  -3.4593621386487E-003         1.77266754968630 -4.2775573204719E-002
  -5.9165686933675E-002 -4.9419459010058E-004  1.7315794636232E-003
         -5.94627160261810  6.6875171444023E-001 -2.4974279827415E-002
   3.1378600814033E-004  1.8311199286491E-001 -1.9977954136185E-003
  -1.0782970795872E-002  2.2339800108630E-004  4.4851067961293E-005
        115.38549381142000        -7.96509430568550  1.6004372422754E-001
  -1.1123971187586E-003        -5.62804453205440  8.9333112868482E-002
   3.0731934642336E-001 -2.7630805402458E-003 -3.8953801682449E-003
        174.10786419888000       -10.66816426633100  1.6649434157367E-001
  -6.6486625528106E-004        -9.29632495587970  1.6696538800608E-001
   4.6996455516307E-001 -2.8777189888625E-003 -7.0253037428523E-003
31.3326,-0.3333,0.
16.317,-0.09167,0.
25.2,-0.22,0.
0.,-0.014,0.167,0.026,-0.073,0.12,0.021,0.,0.021,-0.042,0.,0.04,0.03,
-0.034,-0.031,-0.037,0.0,-0.039,-0.025
4.2,1.2