﻿GK6.kti|SHA512|DF3F5170D73F6D861CA331171CC37E04A7A8500F02417037E7BE329B658C9CE44E2449F7F9A9021781DB550AC3FDA80AC9B47DEB2FE93BAC4FCBEF44A833AF7E
Pyrotec.dll|SHA512|3C733F0DD0EE0534BBC64DC3DDAABEC9FDA9375C6F2108DD452D7520583CABFDC354A76970716AD6BF9CFCDABE3C509FFA23F99B7D8273FF8A9DA881B043CE5F
Pyrotec.ini|
SMK.kti|SHA512|0A607709F26D393E6E67578AC35A18B1765FAE630850F72E28880C02D8C255A3E8E924832753EBC2AA021C27B48AD49D5E8C2C038EB199D207EBD8CE641BF52E
SPSL.dll|SHA512|7D114405ECB8741F6E9D1D193114EC43B5A3E2980802CE48F3401A2104939D46169A9C0FE546E90DE18EE6A1A56787E56D0B6D32849DAE0F72E624AEFE8BD54A
Spsl.xls|SHA512|BFEA32F2FACB2BE9A451F3D2445E4628C8F922E8E634D8B1C5521AA4E869A4FE35B3594580BCCEE2AE9FEF16E13BF4A5B945F8A10F1E026C0106E7B5CDA8892F