Code,TS Type,PT Code,Date,Value,Fwd Period,Diff Base Roll,Year,Cont Fwd,Record Status
PA5000252,2,1,19-Nov-2015,43.11,1,1,2016,0,C
PA5000252,2,2,19-Nov-2015,43.35,1,1,2016,0,C
PA5000252,2,8,19-Nov-2015,43.23,1,1,2016,0,C
PA5000545,9,5,20-Nov-2015,44.25,0,0,2015,0,C
PA0002006,0,29,18-Nov-2015,2141.00,0,0,2015,0,N
PA0003467,0,29,18-Nov-2015,736.00,0,0,2015,0,N
PA0003469,0,29,18-Nov-2015,1664.00,0,0,2015,0,N
PA0003473,0,29,18-Nov-2015,998.00,0,0,2015,0,N
PA0003475,0,29,18-Nov-2015,373.00,0,0,2015,0,N
PA0004007,0,29,18-Nov-2015,370.00,0,0,2015,0,N
PA0002007,0,29,19-Nov-2015,3075.59,0,0,2015,0,N
PA0003463,0,1,19-Nov-2015,417.00,0,0,2015,0,N
PA0003463,0,2,19-Nov-2015,417.50,0,0,2015,0,N
PA0003464,0,1,19-Nov-2015,465.50,0,0,2015,0,N
PA0003464,0,2,19-Nov-2015,466.00,0,0,2015,0,N
PA0003465,0,1,19-Nov-2015,464.19,0,0,2015,0,N
PA0003465,0,2,19-Nov-2015,467.14,0,0,2015,0,N
PA0003466,0,1,19-Nov-2015,463.20,0,0,2015,0,N
PA0003466,0,2,19-Nov-2015,466.16,0,0,2015,0,N
PA0003468,0,29,19-Nov-2015,4785.70,0,0,2015,0,N
PA0003472,0,29,19-Nov-2015,1662.14,0,0,2015,0,N
PA0003474,0,29,19-Nov-2015,665.07,0,0,2015,0,N
PA0004006,0,29,19-Nov-2015,756.95,0,0,2015,0,N
PA5000253,8,1,19-Nov-2015,41.40,0,0,2015,0,N
PA5000253,8,2,19-Nov-2015,41.50,0,0,2015,0,N
PA5000253,8,3,19-Nov-2015,2.00,0,0,2015,0,N
PA5000255,8,1,19-Nov-2015,44.40,0,0,2015,0,N
PA5000255,8,2,19-Nov-2015,44.50,0,0,2015,0,N
PA5000255,8,3,19-Nov-2015,3.00,0,0,2015,0,N
PA5000256,6,1,19-Nov-2015,43.37,0,0,2015,0,N
PA5000256,6,2,19-Nov-2015,43.43,0,0,2015,0,N
PA5000256,6,3,19-Nov-2015,1.30,0,0,2015,0,N
PA5000257,6,8,19-Nov-2015,44.85,0,0,2015,0,N
PA5000257,8,3,19-Nov-2015,2.75,0,0,2015,0,N
PA5000259,8,1,19-Nov-2015,47.40,0,0,2015,0,N
PA5000259,8,2,19-Nov-2015,47.50,0,0,2015,0,N
PA5000259,8,3,19-Nov-2015,3.00,0,0,2015,0,N
PA5000260,6,1,19-Nov-2015,42.32,0,0,2015,0,N
PA5000260,6,2,19-Nov-2015,42.38,0,0,2015,0,N
PA5000260,6,3,19-Nov-2015,0.25,0,0,2015,0,N
PA5000260,6,8,19-Nov-2015,42.35,0,0,2015,0,N
PA5000262,6,1,19-Nov-2015,41.27,0,0,2015,0,N
PA5000262,6,2,19-Nov-2015,41.33,0,0,2015,0,N
PA5000262,6,3,19-Nov-2015,-0.80,0,0,2015,0,N
PA5000262,6,8,19-Nov-2015,41.30,0,0,2015,0,N
PA5000264,6,1,19-Nov-2015,40.47,0,0,2015,0,N
PA5000264,6,2,19-Nov-2015,40.53,0,0,2015,0,N
PA5000264,6,3,19-Nov-2015,-1.60,0,0,2015,0,N
PA5000264,6,8,19-Nov-2015,40.50,0,0,2015,0,N
PA5000267,8,1,19-Nov-2015,42.40,0,0,2015,0,N
PA5000267,8,2,19-Nov-2015,42.50,0,0,2015,0,N
PA5000267,8,3,19-Nov-2015,2.00,0,0,2015,0,N
PA5000267,8,8,19-Nov-2015,42.45,0,0,2015,0,N
PA5000268,6,1,19-Nov-2015,43.05,0,0,2015,0,N
PA5000268,6,2,19-Nov-2015,43.15,0,0,2015,0,N
PA5000268,6,8,19-Nov-2015,43.10,0,0,2015,0,N
PA5000268,8,3,19-Nov-2015,1.00,0,0,2015,0,N
PA5000270,6,1,19-Nov-2015,41.52,0,0,2015,0,N
PA5000270,6,2,19-Nov-2015,41.58,0,0,2015,0,N
PA5000270,6,3,19-Nov-2015,-0.55,0,0,2015,0,N
PA5000270,6,8,19-Nov-2015,41.55,0,0,2015,0,N
PA5000276,8,1,19-Nov-2015,41.50,0,0,2015,0,N
PA5000276,8,2,19-Nov-2015,41.60,0,0,2015,0,N
PA5000276,8,3,19-Nov-2015,3.10,0,0,2015,0,N
PA5000276,8,8,19-Nov-2015,41.55,0,0,2015,0,N
PA5000277,6,1,19-Nov-2015,42.24,0,0,2015,0,N
PA5000277,6,2,19-Nov-2015,42.30,0,0,2015,0,N
PA5000277,6,3,19-Nov-2015,0.17,0,0,2015,0,N
PA5000278,6,1,19-Nov-2015,40.37,0,0,2015,0,N
PA5000278,6,2,19-Nov-2015,40.43,0,0,2015,0,N
PA5000278,6,3,19-Nov-2015,-1.70,0,0,2015,0,N
PA5000278,6,8,19-Nov-2015,40.40,0,0,2015,0,N
PA5000279,2,1,19-Nov-2015,37.65,0,2,2015,0,N
PA5000279,2,2,19-Nov-2015,38.25,0,2,2015,0,N
PA5000280,6,1,19-Nov-2015,42.07,0,0,2015,0,N
PA5000280,6,2,19-Nov-2015,42.13,0,0,2015,0,N
PA5000280,6,3,19-Nov-2015,0.00,0,0,2015,0,N
PA5000280,6,8,19-Nov-2015,42.10,0,0,2015,0,N
PA5000282,6,1,19-Nov-2015,40.12,0,0,2015,0,N
PA5000282,6,2,19-Nov-2015,40.18,0,0,2015,0,N
PA5000282,6,3,19-Nov-2015,-1.95,0,0,2015,0,N
PA5000282,6,8,19-Nov-2015,40.15,0,0,2015,0,N
PA5000283,6,1,19-Nov-2015,42.32,0,0,2015,0,N
PA5000283,6,2,19-Nov-2015,42.38,0,0,2015,0,N
PA5000283,6,3,19-Nov-2015,0.25,0,0,2015,0,N
PA5000283,6,8,19-Nov-2015,42.35,0,0,2015,0,N
PA5000284,6,1,19-Nov-2015,41.15,0,0,2015,0,N
PA5000284,6,2,19-Nov-2015,41.21,0,0,2015,0,N
PA5000284,6,3,19-Nov-2015,-0.92,0,0,2015,0,N
PA5000284,6,8,19-Nov-2015,41.18,0,0,2015,0,N
PA5000286,6,1,19-Nov-2015,38.55,0,0,2015,0,N
PA5000286,6,2,19-Nov-2015,38.61,0,0,2015,0,N
PA5000286,6,3,19-Nov-2015,-3.52,0,0,2015,0,N
PA5000286,6,8,19-Nov-2015,38.58,0,0,2015,0,N
PA5000287,6,1,19-Nov-2015,39.80,0,0,2015,0,N
PA5000287,6,2,19-Nov-2015,39.86,0,0,2015,0,N
PA5000287,6,3,19-Nov-2015,-2.27,0,0,2015,0,N
PA5000287,6,8,19-Nov-2015,39.83,0,0,2015,0,N
PA5000288,6,1,19-Nov-2015,38.47,0,0,2015,0,N
PA5000288,6,2,19-Nov-2015,38.53,0,0,2015,0,N
PA5000288,6,3,19-Nov-2015,-3.60,0,0,2015,0,N
PA5000289,6,1,19-Nov-2015,43.55,0,0,2015,0,N
PA5000289,6,2,19-Nov-2015,43.65,0,0,2015,0,N
PA5000289,6,8,19-Nov-2015,43.60,0,0,2015,0,N
PA5000289,8,3,19-Nov-2015,1.50,0,0,2015,0,N
PA5000290,2,1,19-Nov-2015,39.79,12,12,2015,0,N
PA5000290,2,2,19-Nov-2015,40.09,12,12,2015,0,N
PA5000290,2,8,19-Nov-2015,39.94,12,12,2015,0,N
PA5000292,8,1,19-Nov-2015,42.40,0,0,2015,0,N
PA5000292,8,2,19-Nov-2015,42.50,0,0,2015,0,N
PA5000292,8,3,19-Nov-2015,2.00,0,0,2015,0,N
PA5000292,8,8,19-Nov-2015,42.45,0,0,2015,0,N
PA5000293,8,1,19-Nov-2015,43.59,1,0,2016,0,N
PA5000293,8,2,19-Nov-2015,43.69,1,0,2016,0,N
PA5000293,8,3,19-Nov-2015,0.30,1,0,2016,0,N
PA5000293,8,8,19-Nov-2015,43.64,1,0,2016,0,N
PA5000294,6,4,19-Nov-2015,42.72,0,0,2015,0,N
PA5000295,6,8,19-Nov-2015,43.60,0,0,2015,0,N
PA5000295,8,3,19-Nov-2015,1.50,0,0,2015,0,N
PA5000298,6,1,19-Nov-2015,42.62,0,0,2015,0,N
PA5000298,6,2,19-Nov-2015,42.68,0,0,2015,0,N
PA5000298,6,3,19-Nov-2015,0.55,0,0,2015,0,N
PA5000298,6,8,19-Nov-2015,42.65,0,0,2015,0,N
PA5000299,2,1,19-Nov-2015,37.54,12,12,2015,0,N
PA5000299,2,2,19-Nov-2015,37.74,12,12,2015,0,N
PA5000299,2,8,19-Nov-2015,37.64,12,12,2015,0,N
PA5000300,8,1,19-Nov-2015,42.24,1,0,2016,0,N
PA5000300,8,2,19-Nov-2015,42.34,1,0,2016,0,N
PA5000300,8,3,19-Nov-2015,0.00,1,0,2016,0,N
PA5000300,8,8,19-Nov-2015,42.29,1,0,2016,0,N
PA5000301,8,1,19-Nov-2015,39.59,1,0,2016,0,N
PA5000301,8,2,19-Nov-2015,39.69,1,0,2016,0,N
PA5000301,8,3,19-Nov-2015,-0.40,1,0,2016,0,N
PA5000301,8,8,19-Nov-2015,39.64,1,0,2016,0,N
PA5000302,6,1,19-Nov-2015,42.32,0,0,2015,0,N
PA5000302,6,2,19-Nov-2015,42.38,0,0,2015,0,N
PA5000302,6,3,19-Nov-2015,0.25,0,0,2015,0,N
PA5000302,6,8,19-Nov-2015,42.35,0,0,2015,0,N
PA5000304,6,1,19-Nov-2015,42.27,0,0,2015,0,N
PA5000304,6,2,19-Nov-2015,42.33,0,0,2015,0,N
PA5000304,6,3,19-Nov-2015,0.20,0,0,2015,0,N
PA5000304,6,8,19-Nov-2015,42.30,0,0,2015,0,N
PA5000305,6,1,19-Nov-2015,41.07,0,0,2015,0,N
PA5000305,6,2,19-Nov-2015,41.13,0,0,2015,0,N
PA5000305,6,3,19-Nov-2015,-1.00,0,0,2015,0,N
PA5000305,6,8,19-Nov-2015,41.10,0,0,2015,0,N
PA5000306,6,1,19-Nov-2015,42.32,0,0,2015,0,N
PA5000306,6,2,19-Nov-2015,42.38,0,0,2015,0,N
PA5000306,6,3,19-Nov-2015,0.25,0,0,2015,0,N
PA5000306,6,8,19-Nov-2015,42.35,0,0,2015,0,N
PA5000307,6,1,19-Nov-2015,37.87,0,0,2015,0,N
PA5000307,6,2,19-Nov-2015,37.93,0,0,2015,0,N
PA5000307,6,3,19-Nov-2015,-4.20,0,0,2015,0,N
PA5000307,6,8,19-Nov-2015,37.90,0,0,2015,0,N
PA5000310,6,1,19-Nov-2015,42.17,0,0,2015,0,N
PA5000310,6,2,19-Nov-2015,42.23,0,0,2015,0,N
PA5000310,6,3,19-Nov-2015,0.10,0,0,2015,0,N
PA5000310,6,8,19-Nov-2015,42.20,0,0,2015,0,N
PA5000311,6,1,19-Nov-2015,39.57,0,0,2015,0,N
PA5000311,6,2,19-Nov-2015,39.63,0,0,2015,0,N
PA5000311,6,3,19-Nov-2015,-2.50,0,0,2015,0,N
PA5000311,6,8,19-Nov-2015,39.60,0,0,2015,0,N
PA5000312,6,1,19-Nov-2015,38.77,0,0,2015,0,N
PA5000312,6,2,19-Nov-2015,38.83,0,0,2015,0,N
PA5000312,6,3,19-Nov-2015,-3.30,0,0,2015,0,N
PA5000312,6,8,19-Nov-2015,38.80,0,0,2015,0,N
PA5000313,2,1,19-Nov-2015,36.30,0,2,2015,0,N
PA5000313,2,2,19-Nov-2015,37.00,0,2,2015,0,N
PA5000314,8,1,19-Nov-2015,42.90,0,0,2015,0,N
PA5000314,8,2,19-Nov-2015,43.00,0,0,2015,0,N
PA5000314,8,3,19-Nov-2015,2.50,0,0,2015,0,N
PA5000314,8,8,19-Nov-2015,42.95,0,0,2015,0,N
PA5000316,6,1,19-Nov-2015,351.00,0,0,2015,0,N
PA5000316,6,2,19-Nov-2015,360.00,0,0,2015,0,N
PA5000316,6,8,19-Nov-2015,355.50,0,0,2015,0,N
PA5000317,8,6,19-Nov-2015,-20.00,12,12,2015,0,N
PA5000317,8,7,19-Nov-2015,-10.00,12,12,2015,0,N
PA5000318,8,6,19-Nov-2015,54.00,24,12,2015,0,N
PA5000318,8,7,19-Nov-2015,58.00,24,12,2015,0,N
PA5000319,6,1,19-Nov-2015,353.00,0,0,2015,0,N
PA5000319,6,2,19-Nov-2015,363.00,0,0,2015,0,N
PA5000319,6,8,19-Nov-2015,358.00,0,0,2015,0,N
PA5000320,2,1,19-Nov-2015,59.25,11,0,2015,0,N
PA5000320,2,2,19-Nov-2015,59.75,11,0,2015,0,N
PA5000320,2,8,19-Nov-2015,59.50,11,0,2015,0,N
PA5000321,6,1,19-Nov-2015,356.00,0,0,2015,0,N
PA5000321,6,2,19-Nov-2015,365.00,0,0,2015,0,N
PA5000321,6,8,19-Nov-2015,360.50,0,0,2015,0,N
PA5000322,8,6,19-Nov-2015,-20.00,12,12,2015,0,N
PA5000322,8,7,19-Nov-2015,-10.00,12,12,2015,0,N
PA5000323,8,6,19-Nov-2015,54.00,24,12,2015,0,N
PA5000323,8,7,19-Nov-2015,58.00,24,12,2015,0,N
PA5000324,6,1,19-Nov-2015,358.00,0,0,2015,0,N
PA5000324,6,2,19-Nov-2015,368.00,0,0,2015,0,N
PA5000324,6,8,19-Nov-2015,363.00,0,0,2015,0,N
PA5000325,2,1,19-Nov-2015,40.88,11,0,2015,0,N
PA5000325,2,2,19-Nov-2015,41.50,11,0,2015,0,N
PA5000325,2,8,19-Nov-2015,41.19,11,0,2015,0,N
PA5000326,6,1,19-Nov-2015,206.75,0,0,2015,0,N
PA5000326,6,2,19-Nov-2015,210.75,0,0,2015,0,N
PA5000326,6,8,19-Nov-2015,208.75,0,0,2015,0,N
PA5000327,6,1,19-Nov-2015,210.75,0,0,2015,0,N
PA5000327,6,2,19-Nov-2015,214.75,0,0,2015,0,N
PA5000327,6,8,19-Nov-2015,212.75,0,0,2015,0,N
PA5000328,6,1,19-Nov-2015,188.75,0,0,2015,0,N
PA5000328,6,2,19-Nov-2015,192.75,0,0,2015,0,N
PA5000328,6,8,19-Nov-2015,190.75,0,0,2015,0,N
PA5000329,6,8,19-Nov-2015,177.50,0,0,2015,0,N
PA5000330,6,1,19-Nov-2015,176.25,0,0,2015,0,N
PA5000330,6,2,19-Nov-2015,180.25,0,0,2015,0,N
PA5000330,6,8,19-Nov-2015,178.25,0,0,2015,0,N
PA5000331,2,8,19-Nov-2015,257.50,0,0,2015,0,N
PA5000332,2,1,19-Nov-2015,214.50,0,0,2015,0,N
PA5000332,2,2,19-Nov-2015,219.50,0,0,2015,0,N
PA5000333,2,1,19-Nov-2015,210.00,0,0,2015,0,N
PA5000333,2,2,19-Nov-2015,215.00,0,0,2015,0,N
PA5000333,2,8,19-Nov-2015,212.50,0,0,2015,0,N
PA5000334,8,1,19-Nov-2015,233.15,0,0,2015,0,N
PA5000334,8,2,19-Nov-2015,234.15,0,0,2015,0,N
PA5000334,8,8,19-Nov-2015,233.65,0,0,2015,0,N
PA5000335,8,1,19-Nov-2015,202.05,0,0,2015,0,N
PA5000335,8,2,19-Nov-2015,203.05,0,0,2015,0,N
PA5000335,8,8,19-Nov-2015,202.55,0,0,2015,0,N
PA5000336,8,1,19-Nov-2015,219.75,0,0,2015,0,N
PA5000336,8,2,19-Nov-2015,220.75,0,0,2015,0,N
PA5000336,8,8,19-Nov-2015,220.25,0,0,2015,0,N
PA5000337,8,1,19-Nov-2015,197.75,0,0,2015,0,N
PA5000337,8,2,19-Nov-2015,198.75,0,0,2015,0,N
PA5000337,8,8,19-Nov-2015,198.25,0,0,2015,0,N
PA5000338,8,1,19-Nov-2015,215.50,0,0,2015,0,N
PA5000338,8,2,19-Nov-2015,216.50,0,0,2015,0,N
PA5000338,8,3,19-Nov-2015,-1.50,0,0,2015,0,N
PA5000338,8,6,19-Nov-2015,-2.00,0,0,2015,0,N
PA5000338,8,7,19-Nov-2015,-1.00,0,0,2015,0,N
PA5000338,8,8,19-Nov-2015,216.00,0,0,2015,0,N
PA5000341,2,1,19-Nov-2015,31.30,0,0,2015,0,N
PA5000341,2,2,19-Nov-2015,31.50,0,0,2015,0,N
PA5000341,2,8,19-Nov-2015,31.40,0,0,2015,0,N
PA5000343,2,1,19-Nov-2015,30.87,0,0,2015,0,N
PA5000343,2,2,19-Nov-2015,30.97,0,0,2015,0,N
PA5000343,2,8,19-Nov-2015,30.92,0,0,2015,0,N
PA5000345,2,1,19-Nov-2015,29.75,0,0,2015,0,N
PA5000345,2,2,19-Nov-2015,29.85,0,0,2015,0,N
PA5000345,2,8,19-Nov-2015,29.80,0,0,2015,0,N
PA5000346,6,6,19-Nov-2015,-6.00,0,0,2015,0,N
PA5000346,6,7,19-Nov-2015,-5.50,0,0,2015,0,N
PA5000347,8,1,19-Nov-2015,53.10,0,0,2015,0,N
PA5000347,8,2,19-Nov-2015,53.30,0,0,2015,0,N
PA5000348,8,1,19-Nov-2015,52.65,0,0,2015,0,N
PA5000348,8,2,19-Nov-2015,52.85,0,0,2015,0,N
PA5000348,8,8,19-Nov-2015,52.75,0,0,2015,0,N
PA5000349,2,1,19-Nov-2015,139.06,12,1,2015,0,N
PA5000349,2,2,19-Nov-2015,140.06,12,1,2015,0,N
PA5000349,2,8,19-Nov-2015,139.56,12,1,2015,0,N
PA5000350,2,1,19-Nov-2015,133.68,11,12,2015,0,N
PA5000350,2,2,19-Nov-2015,134.68,11,12,2015,0,N
PA5000351,6,1,19-Nov-2015,429.75,0,12,2015,0,N
PA5000351,6,2,19-Nov-2015,430.75,0,12,2015,0,N
PA5000351,6,8,19-Nov-2015,430.25,0,12,2015,0,N
PA5000352,6,1,19-Nov-2015,430.50,0,12,2015,0,N
PA5000352,6,2,19-Nov-2015,431.50,0,12,2015,0,N
PA5000352,6,3,19-Nov-2015,4.00,0,12,2015,0,N
PA5000352,6,6,19-Nov-2015,3.50,0,12,2015,0,N
PA5000352,6,7,19-Nov-2015,4.50,0,12,2015,0,N
PA5000352,6,8,19-Nov-2015,431.00,0,12,2015,0,N
PA5000353,6,1,19-Nov-2015,411.50,0,12,2015,0,N
PA5000353,6,2,19-Nov-2015,412.50,0,12,2015,0,N
PA5000353,6,3,19-Nov-2015,-15.00,0,12,2015,0,N
PA5000353,6,6,19-Nov-2015,-15.50,0,12,2015,0,N
PA5000353,6,7,19-Nov-2015,-14.50,0,12,2015,0,N
PA5000353,6,8,19-Nov-2015,412.00,0,12,2015,0,N
PA5000354,6,1,19-Nov-2015,407.75,0,12,2015,0,N
PA5000354,6,2,19-Nov-2015,408.75,0,12,2015,0,N
PA5000354,6,3,19-Nov-2015,-18.75,0,12,2015,0,N
PA5000354,6,6,19-Nov-2015,-19.25,0,12,2015,0,N
PA5000354,6,7,19-Nov-2015,-18.25,0,12,2015,0,N
PA5000354,6,8,19-Nov-2015,408.25,0,12,2015,0,N
PA5000355,6,8,19-Nov-2015,398.50,0,0,2015,0,N
PA5000356,6,1,19-Nov-2015,405.00,0,12,2015,0,N
PA5000356,6,2,19-Nov-2015,405.50,0,12,2015,0,N
PA5000357,8,1,19-Nov-2015,55.05,0,0,2015,0,N
PA5000357,8,2,19-Nov-2015,55.25,0,0,2015,0,N
PA5000357,8,8,19-Nov-2015,55.15,0,0,2015,0,N
PA5000358,8,1,19-Nov-2015,58.40,0,0,2015,0,N
PA5000358,8,2,19-Nov-2015,58.60,0,0,2015,0,N
PA5000358,8,8,19-Nov-2015,58.50,0,0,2015,0,N
PA5000362,2,1,19-Nov-2015,133.08,0,12,2015,0,N
PA5000362,2,2,19-Nov-2015,133.58,0,12,2015,0,N
PA5000362,2,8,19-Nov-2015,133.33,0,12,2015,0,N
PA5000363,2,1,19-Nov-2015,115.26,0,1,2015,0,N
PA5000363,2,2,19-Nov-2015,117.01,0,1,2015,0,N
PA5000363,2,8,19-Nov-2015,116.14,0,1,2015,0,N
PA5000366,8,1,19-Nov-2015,54.65,0,0,2015,0,N
PA5000366,8,2,19-Nov-2015,54.85,0,0,2015,0,N
PA5000367,2,1,19-Nov-2015,146.08,0,12,2015,0,N
PA5000367,2,2,19-Nov-2015,146.58,0,12,2015,0,N
PA5000367,2,8,19-Nov-2015,146.33,0,12,2015,0,N
PA5000368,2,1,19-Nov-2015,131.76,0,1,2015,0,N
PA5000368,2,2,19-Nov-2015,135.26,0,1,2015,0,N
PA5000368,2,8,19-Nov-2015,133.51,0,1,2015,0,N
PA5000370,8,1,19-Nov-2015,55.65,0,0,2015,0,N
PA5000370,8,2,19-Nov-2015,55.85,0,0,2015,0,N
PA5000370,8,8,19-Nov-2015,55.75,0,0,2015,0,N
PA5000372,8,1,19-Nov-2015,57.25,0,0,2015,0,N
PA5000372,8,2,19-Nov-2015,57.45,0,0,2015,0,N
PA5000372,8,8,19-Nov-2015,57.35,0,0,2015,0,N
PA5000376,8,1,19-Nov-2015,57.75,0,0,2015,0,N
PA5000376,8,2,19-Nov-2015,57.95,0,0,2015,0,N
PA5000376,8,8,19-Nov-2015,57.85,0,0,2015,0,N
PA5000377,8,1,19-Nov-2015,53.90,0,0,2015,0,N
PA5000377,8,2,19-Nov-2015,54.10,0,0,2015,0,N
PA5000377,8,8,19-Nov-2015,54.00,0,0,2015,0,N
PA5000378,6,1,19-Nov-2015,451.00,0,12,2015,0,N
PA5000378,6,2,19-Nov-2015,452.00,0,12,2015,0,N
PA5000378,6,8,19-Nov-2015,451.50,0,12,2015,0,N
PA5000379,8,1,19-Nov-2015,55.85,0,0,2015,0,N
PA5000379,8,2,19-Nov-2015,56.05,0,0,2015,0,N
PA5000379,8,8,19-Nov-2015,55.95,0,0,2015,0,N
PA5000380,2,1,19-Nov-2015,126.18,0,12,2015,0,N
PA5000380,2,2,19-Nov-2015,127.93,0,12,2015,0,N
PA5000380,2,8,19-Nov-2015,127.06,0,12,2015,0,N
PA5000381,6,1,19-Nov-2015,431.75,0,0,2015,0,N
PA5000381,6,2,19-Nov-2015,432.75,0,0,2015,0,N
PA5000381,6,8,19-Nov-2015,432.25,0,0,2015,0,N
PA5000382,2,1,19-Nov-2015,141.68,0,12,2015,0,N
PA5000382,2,2,19-Nov-2015,142.68,0,12,2015,0,N
PA5000382,2,8,19-Nov-2015,142.18,0,12,2015,0,N
PA5000383,2,1,19-Nov-2015,135.18,11,12,2015,0,N
PA5000383,2,2,19-Nov-2015,136.18,11,12,2015,0,N
PA5000383,2,8,19-Nov-2015,135.68,11,12,2015,0,N
PA5000384,2,1,19-Nov-2015,132.18,11,12,2015,0,N
PA5000384,2,2,19-Nov-2015,133.18,11,12,2015,0,N
PA5000385,6,1,19-Nov-2015,590.50,0,0,2015,0,N
PA5000385,6,2,19-Nov-2015,591.00,0,0,2015,0,N
PA5000387,2,6,19-Nov-2015,-6.00,0,0,2015,0,N
PA5000387,2,7,19-Nov-2015,-2.00,0,0,2015,0,N
PA5000388,6,1,19-Nov-2015,410.50,0,0,2015,0,N
PA5000388,6,2,19-Nov-2015,411.50,0,0,2015,0,N
PA5000388,6,8,19-Nov-2015,411.00,0,0,2015,0,N
PA5000389,6,1,19-Nov-2015,400.75,0,0,2015,0,N
PA5000389,6,2,19-Nov-2015,401.75,0,0,2015,0,N
PA5000389,6,8,19-Nov-2015,401.25,0,0,2015,0,N
PA5000390,6,8,19-Nov-2015,391.50,0,0,2015,0,N
PA5000391,8,1,19-Nov-2015,441.00,0,0,2015,0,N
PA5000391,8,2,19-Nov-2015,444.50,0,0,2015,0,N
PA5000391,8,8,19-Nov-2015,442.75,0,0,2015,0,N
PA5000392,8,1,19-Nov-2015,417.00,0,0,2015,0,N
PA5000392,8,2,19-Nov-2015,420.50,0,0,2015,0,N
PA5000392,8,3,19-Nov-2015,14.00,0,0,2015,0,N
PA5000392,8,6,19-Nov-2015,13.00,0,0,2015,0,N
PA5000392,8,7,19-Nov-2015,15.00,0,0,2015,0,N
PA5000392,8,8,19-Nov-2015,418.75,0,0,2015,0,N
PA5000393,8,1,19-Nov-2015,48.05,0,0,2015,0,N
PA5000393,8,2,19-Nov-2015,48.15,0,0,2015,0,N
PA5000393,8,8,19-Nov-2015,48.10,0,0,2015,0,N
PA5000394,2,1,19-Nov-2015,123.18,0,12,2015,0,N
PA5000394,2,2,19-Nov-2015,124.18,0,12,2015,0,N
PA5000394,2,8,19-Nov-2015,123.68,0,12,2015,0,N
PA5000395,2,1,19-Nov-2015,113.43,0,12,2015,0,N
PA5000395,2,2,19-Nov-2015,115.43,0,12,2015,0,N
PA5000395,2,8,19-Nov-2015,114.43,0,12,2015,0,N
PA5000396,6,1,19-Nov-2015,298.50,0,0,2015,0,N
PA5000396,6,2,19-Nov-2015,301.75,0,0,2015,0,N
PA5000396,6,8,19-Nov-2015,300.13,0,0,2015,0,N
PA5000397,6,1,19-Nov-2015,295.00,0,0,2015,0,N
PA5000397,6,2,19-Nov-2015,298.25,0,0,2015,0,N
PA5000397,6,8,19-Nov-2015,296.63,0,0,2015,0,N
PA5000398,6,1,19-Nov-2015,291.00,0,0,2015,0,N
PA5000398,6,2,19-Nov-2015,294.50,0,0,2015,0,N
PA5000398,6,8,19-Nov-2015,292.75,0,0,2015,0,N
PA5000399,2,6,19-Nov-2015,-3.62,0,0,2015,0,N
PA5000399,2,7,19-Nov-2015,-2.43,0,0,2015,0,N
PA5000400,2,6,19-Nov-2015,-1.24,0,0,2015,0,N
PA5000400,2,7,19-Nov-2015,-0.05,0,0,2015,0,N
PA5000401,6,1,19-Nov-2015,40.37,0,0,2015,0,N
PA5000401,6,2,19-Nov-2015,40.43,0,0,2015,0,N
PA5000401,6,3,19-Nov-2015,-1.70,0,0,2015,0,N
PA5000401,6,8,19-Nov-2015,40.40,0,0,2015,0,N
PA5000402,6,1,19-Nov-2015,41.07,0,0,2015,0,N
PA5000402,6,2,19-Nov-2015,41.13,0,0,2015,0,N
PA5000402,6,3,19-Nov-2015,-1.00,0,0,2015,0,N
PA5000402,6,8,19-Nov-2015,41.10,0,0,2015,0,N
PA5000403,6,1,19-Nov-2015,42.07,0,2,2015,0,N
PA5000403,6,2,19-Nov-2015,42.13,0,2,2015,0,N
PA5000403,6,3,19-Nov-2015,-2.62,0,2,2015,0,N
PA5000403,6,8,19-Nov-2015,42.10,0,2,2015,0,N
PA5000404,2,1,19-Nov-2015,127.79,11,12,2015,0,N
PA5000404,2,2,19-Nov-2015,128.79,11,12,2015,0,N
PA5000405,2,1,19-Nov-2015,176.29,11,0,2015,0,N
PA5000405,2,2,19-Nov-2015,178.29,11,0,2015,0,N
PA5000405,2,8,19-Nov-2015,177.29,11,0,2015,0,N
PA5000406,2,1,19-Nov-2015,165.29,11,0,2015,0,N
PA5000406,2,2,19-Nov-2015,167.29,11,0,2015,0,N
PA5000407,2,5,19-Nov-2015,40.54,12,0,2015,0,N
PA5000408,6,1,19-Nov-2015,42.88,12,0,2015,0,N
PA5000408,6,2,19-Nov-2015,42.96,12,0,2015,0,N
PA5000408,6,8,19-Nov-2015,42.92,12,0,2015,0,N
PA5000409,9,5,19-Nov-2015,44.23,1,0,2016,0,N
PA5000410,6,1,19-Nov-2015,39.35,1,0,2016,0,N
PA5000410,6,2,19-Nov-2015,39.43,1,0,2016,0,N
PA5000410,6,8,19-Nov-2015,39.39,1,0,2016,0,N
PA5000411,8,1,19-Nov-2015,40.38,1,1,2016,0,N
PA5000411,8,2,19-Nov-2015,40.48,1,1,2016,0,N
PA5000411,8,3,19-Nov-2015,-1.45,1,1,2016,0,N
PA5000411,8,8,19-Nov-2015,40.43,1,1,2016,0,N
PA5000413,9,1,19-Nov-2015,40.52,12,0,2015,0,N
PA5000413,9,2,19-Nov-2015,40.56,12,0,2015,0,N
PA5000413,9,8,19-Nov-2015,40.54,12,0,2015,0,N
PA5000414,8,1,19-Nov-2015,223.50,12,0,2015,0,N
PA5000414,8,2,19-Nov-2015,224.50,12,0,2015,0,N
PA5000415,6,1,19-Nov-2015,194.75,12,0,2015,0,N
PA5000415,6,2,19-Nov-2015,195.75,12,0,2015,0,N
PA5000416,8,1,19-Nov-2015,55.50,12,0,2015,0,N
PA5000416,8,2,19-Nov-2015,55.70,12,0,2015,0,N
PA5000417,6,1,19-Nov-2015,437.50,12,0,2015,0,N
PA5000417,6,2,19-Nov-2015,439.50,12,0,2015,0,N
PA5000418,8,1,19-Nov-2015,55.80,12,0,2015,0,N
PA5000418,8,2,19-Nov-2015,56.00,12,0,2015,0,N
PA5000419,8,1,19-Nov-2015,46.90,12,0,2015,0,N
PA5000419,8,2,19-Nov-2015,47.10,12,0,2015,0,N
PA5000420,2,1,19-Nov-2015,31.80,11,0,2015,0,N
PA5000420,2,2,19-Nov-2015,31.90,11,0,2015,0,N
PA5000421,6,1,19-Nov-2015,190.75,12,0,2015,0,N
PA5000421,6,2,19-Nov-2015,191.75,12,0,2015,0,N
PA5000422,6,5,19-Nov-2015,427.00,12,0,2015,0,N
PA5000424,2,5,19-Nov-2015,2.28,12,0,2015,0,N
PA5000425,2,5,19-Nov-2015,137.18,12,0,2015,0,N
PA5000426,9,5,19-Nov-2015,44.18,1,0,2016,0,N
PA5000430,2,1,19-Nov-2015,128.79,11,12,2015,0,N
PA5000430,2,2,19-Nov-2015,129.79,11,12,2015,0,N
PA5000430,2,8,19-Nov-2015,129.29,11,12,2015,0,N
PA5000431,6,1,19-Nov-2015,38.47,0,0,2015,0,N
PA5000431,6,2,19-Nov-2015,38.53,0,0,2015,0,N
PA5000431,6,3,19-Nov-2015,-3.60,0,0,2015,0,N
PA5000601,2,5,19-Nov-2015,41.72,1,0,2016,0,N
PA5000602,6,1,19-Nov-2015,43.76,1,0,2016,0,N
PA5000602,6,2,19-Nov-2015,43.84,1,0,2016,0,N
PA5000602,6,8,19-Nov-2015,43.80,1,0,2016,0,N
PA5000603,6,1,19-Nov-2015,44.69,2,0,2016,0,N
PA5000603,6,2,19-Nov-2015,44.75,2,0,2016,0,N
PA5000603,6,8,19-Nov-2015,44.72,2,0,2016,0,N
PA5000604,6,1,19-Nov-2015,45.38,3,0,2016,0,N
PA5000604,6,2,19-Nov-2015,45.46,3,0,2016,0,N
PA5000604,6,8,19-Nov-2015,45.42,3,0,2016,0,N
PA5000605,9,5,19-Nov-2015,45.04,2,0,2016,0,N
PA5000606,6,1,19-Nov-2015,40.84,2,0,2016,0,N
PA5000606,6,2,19-Nov-2015,40.94,2,0,2016,0,N
PA5000606,6,8,19-Nov-2015,40.89,2,0,2016,0,N
PA5000607,6,1,19-Nov-2015,41.58,3,0,2016,0,N
PA5000607,6,2,19-Nov-2015,41.68,3,0,2016,0,N
PA5000607,6,8,19-Nov-2015,41.63,3,0,2016,0,N
PA5000608,6,1,19-Nov-2015,42.40,4,0,2016,0,N
PA5000608,6,2,19-Nov-2015,42.50,4,0,2016,0,N
PA5000608,6,8,19-Nov-2015,42.45,4,0,2016,0,N
PA5000612,9,1,19-Nov-2015,41.70,1,0,2016,0,N
PA5000612,9,2,19-Nov-2015,41.74,1,0,2016,0,N
PA5000612,9,8,19-Nov-2015,41.72,1,0,2016,0,N
PA5000613,9,1,19-Nov-2015,42.87,2,0,2016,0,N
PA5000613,9,2,19-Nov-2015,42.91,2,0,2016,0,N
PA5000613,9,8,19-Nov-2015,42.89,2,0,2016,0,N
PA5000614,9,1,19-Nov-2015,43.86,3,0,2016,0,N
PA5000614,9,2,19-Nov-2015,43.90,3,0,2016,0,N
PA5000614,9,8,19-Nov-2015,43.88,3,0,2016,0,N
PA5000615,8,1,19-Nov-2015,226.50,1,0,2016,0,N
PA5000615,8,2,19-Nov-2015,227.50,1,0,2016,0,N
PA5000616,8,1,19-Nov-2015,231.00,2,0,2016,0,N
PA5000616,8,2,19-Nov-2015,232.00,2,0,2016,0,N
PA5000617,6,1,19-Nov-2015,199.25,1,0,2016,0,N
PA5000617,6,2,19-Nov-2015,200.25,1,0,2016,0,N
PA5000618,6,1,19-Nov-2015,204.00,2,0,2016,0,N
PA5000618,6,2,19-Nov-2015,205.00,2,0,2016,0,N
PA5000619,8,1,19-Nov-2015,55.45,1,0,2016,0,N
PA5000619,8,2,19-Nov-2015,55.65,1,0,2016,0,N
PA5000620,8,1,19-Nov-2015,55.75,2,0,2016,0,N
PA5000620,8,2,19-Nov-2015,55.95,2,0,2016,0,N
PA5000621,6,1,19-Nov-2015,439.50,1,0,2016,0,N
PA5000621,6,2,19-Nov-2015,441.50,1,0,2016,0,N
PA5000622,6,1,19-Nov-2015,447.00,2,0,2016,0,N
PA5000622,6,2,19-Nov-2015,449.00,2,0,2016,0,N
PA5000623,8,1,19-Nov-2015,56.20,1,0,2016,0,N
PA5000623,8,2,19-Nov-2015,56.40,1,0,2016,0,N
PA5000624,8,1,19-Nov-2015,56.75,2,0,2016,0,N
PA5000624,8,2,19-Nov-2015,56.95,2,0,2016,0,N
PA5000625,8,1,19-Nov-2015,46.50,1,0,2016,0,N
PA5000625,8,2,19-Nov-2015,46.70,1,0,2016,0,N
PA5000626,8,1,19-Nov-2015,46.40,2,0,2016,0,N
PA5000626,8,2,19-Nov-2015,46.60,2,0,2016,0,N
PA5000627,2,1,19-Nov-2015,31.80,12,0,2015,0,N
PA5000627,2,2,19-Nov-2015,31.90,12,0,2015,0,N
PA5000628,2,1,19-Nov-2015,31.95,1,0,2016,0,N
PA5000628,2,2,19-Nov-2015,32.05,1,0,2016,0,N
PA5000629,6,1,19-Nov-2015,195.50,1,0,2016,0,N
PA5000629,6,2,19-Nov-2015,196.50,1,0,2016,0,N
PA5000630,6,1,19-Nov-2015,200.00,2,0,2016,0,N
PA5000630,6,2,19-Nov-2015,201.00,2,0,2016,0,N
PA5000631,6,5,19-Nov-2015,430.00,1,0,2016,0,N
PA5000634,2,5,19-Nov-2015,2.41,1,0,2016,0,N
PA5000635,2,5,19-Nov-2015,139.56,1,0,2016,0,N
PA5000636,2,5,19-Nov-2015,141.78,2,0,2016,0,N
PA5000637,9,5,19-Nov-2015,45.00,2,0,2016,0,N
PA5000640,2,5,19-Nov-2015,128.79,12,0,2015,0,N
PA5000641,2,5,19-Nov-2015,126.51,1,0,2016,0,N
PA5000660,0,3,19-Nov-2015,-1.10,11,0,2015,0,N
PA5000661,0,3,19-Nov-2015,-4.45,12,0,2015,0,N
PA5000662,0,3,19-Nov-2015,-0.10,12,0,2015,0,N
PA5000663,0,3,19-Nov-2015,-8.50,12,0,2015,0,N
PA5000664,0,3,19-Nov-2015,-1.45,12,0,2015,0,N
PA5000665,0,3,19-Nov-2015,-1.30,12,0,2015,0,N
PA5000666,0,3,19-Nov-2015,1.80,12,0,2015,0,N
PA5000667,0,3,19-Nov-2015,-4.75,12,0,2015,0,N
PA5000668,0,3,19-Nov-2015,0.45,12,0,2015,0,N
PA5000669,0,3,19-Nov-2015,-6.40,12,0,2015,0,N
PA5000670,0,3,19-Nov-2015,-2.90,12,0,2015,0,N
PA5000671,0,3,19-Nov-2015,-1.05,12,0,2015,0,N
PA5000672,0,3,19-Nov-2015,0.30,12,0,2015,0,N
PA5000673,0,8,19-Nov-2015,43.72,10,0,2015,0,N
PA5000675,0,8,19-Nov-2015,46.49,10,0,2015,0,N
PA5000676,0,3,19-Nov-2015,-3.35,12,0,2015,0,N
PA5000677,0,3,19-Nov-2015,-5.25,12,0,2015,0,N
PA5000678,0,3,19-Nov-2015,-0.55,12,0,2015,0,N
PA5000680,0,8,19-Nov-2015,47.83,10,0,2015,0,N
PA5000681,0,3,19-Nov-2015,-2.65,12,0,2015,0,N
PA5000682,0,3,19-Nov-2015,3.55,12,0,2015,0,N
PA5000684,0,8,19-Nov-2015,48.61,10,0,2015,0,N
PA5000685,0,3,19-Nov-2015,0.00,12,0,2015,0,N
PA5000686,0,3,19-Nov-2015,-2.70,11,0,2015,0,N
PA5000687,0,3,19-Nov-2015,-0.71,12,0,2015,0,N
PA5000688,0,3,19-Nov-2015,-0.25,11,0,2015,0,N
PA5000689,0,3,19-Nov-2015,1.20,11,0,2015,0,N
PA5000690,0,8,19-Nov-2015,42.77,10,0,2015,0,N
PA5000691,0,3,19-Nov-2015,0.41,10,0,2015,0,N
PA5000691,0,8,19-Nov-2015,46.25,10,0,2015,0,N
PA5000692,0,8,19-Nov-2015,40.55,10,0,2015,0,N
PA5000693,0,3,19-Nov-2015,-1.00,11,0,2015,0,N
PA5000694,0,3,19-Nov-2015,-0.20,12,0,2015,0,N
PA5000695,0,3,19-Nov-2015,0.20,11,0,2015,0,N
PA5000696,0,3,19-Nov-2015,0.27,12,0,2015,0,N
PA5000697,0,3,19-Nov-2015,-2.97,12,0,2015,0,N
PA5000698,0,3,19-Nov-2015,-1.15,12,0,2015,0,N
PA5000700,0,3,19-Nov-2015,0.30,12,0,2015,0,N
PA5000701,0,3,19-Nov-2015,-3.50,12,0,2015,0,N
PA5000702,0,8,19-Nov-2015,51.41,10,0,2015,0,N
PA5000704,0,3,19-Nov-2015,0.00,6,0,2015,0,N
PA5000705,0,3,19-Nov-2015,-1.84,10,0,2015,0,N
PA5000705,0,8,19-Nov-2015,44.00,10,0,2015,0,N
PA5000706,0,3,19-Nov-2015,1.22,6,0,2015,0,N
PA5000708,0,8,19-Nov-2015,42.92,10,0,2015,0,N
PA5000709,0,8,19-Nov-2015,51.41,10,0,2015,0,N
PA5000710,0,8,19-Nov-2015,47.30,10,0,2015,0,N
PA5000713,0,8,19-Nov-2015,46.03,12,0,2015,0,N
PA5000714,0,3,19-Nov-2015,-0.55,12,0,2015,0,N
PA5000715,0,3,19-Nov-2015,0.22,12,0,2015,0,N
PA5000719,0,3,19-Nov-2015,1.00,11,0,2015,0,N
PA5000720,0,3,19-Nov-2015,-2.60,11,0,2015,0,N
PA5000721,0,8,19-Nov-2015,48.43,9,0,2015,0,N
PA5000722,0,3,19-Nov-2015,-2.00,11,0,2015,0,N
PA5000723,0,3,19-Nov-2015,-9.75,10,0,2011,0,N
PA5000726,0,3,19-Nov-2015,2.85,10,0,2015,0,N
PA5000726,0,8,19-Nov-2015,48.91,10,0,2015,0,N
PA5000728,0,8,19-Nov-2015,43.95,10,0,2015,0,N
PA5000729,0,8,19-Nov-2015,42.92,10,0,2015,0,N
PA5000731,0,3,19-Nov-2015,-0.20,11,0,2015,0,N
PA5000732,0,3,19-Nov-2015,-5.05,12,0,2015,0,N
PA5000733,0,8,19-Nov-2015,48.08,10,0,2015,0,N
PA5000734,0,3,19-Nov-2015,0.05,12,0,2015,0,N
PA5000735,0,3,19-Nov-2015,-1.30,12,0,2015,0,N
PA5000736,0,3,19-Nov-2015,-3.65,12,0,2015,0,N
PA5000737,0,3,19-Nov-2015,-4.90,12,0,2015,0,N
PA5000738,0,3,19-Nov-2015,-6.50,12,0,2015,0,N
PA5000739,0,3,19-Nov-2015,2.10,12,0,2015,0,N
PA5000740,0,3,19-Nov-2015,0.80,12,0,2015,0,N
PA5000741,0,3,19-Nov-2015,-0.90,11,0,2015,0,N
PA5000743,0,3,19-Nov-2015,-0.70,12,0,2015,0,N
PA5000745,0,3,19-Nov-2015,0.94,12,0,2015,0,N
PA5000746,0,3,19-Nov-2015,1.18,12,0,2015,0,N
PA5000747,0,8,19-Nov-2015,45.02,10,0,2015,0,N
PA5000748,0,3,19-Nov-2015,-2.80,12,0,2015,0,N
PA5000749,0,3,19-Nov-2015,-3.55,12,0,2015,0,N
PA5000750,0,3,19-Nov-2015,-4.80,12,0,2015,0,N
PA5000751,0,3,19-Nov-2015,-4.60,12,0,2015,0,N
PA5000752,0,3,19-Nov-2015,-5.00,12,0,2015,0,N
PA5000753,0,3,19-Nov-2015,-6.25,12,0,2015,0,N
PA5000754,0,3,19-Nov-2015,-6.05,12,0,2015,0,N
PA5000755,0,3,19-Nov-2015,-4.85,12,0,2015,0,N
PA5000756,0,3,19-Nov-2015,-6.50,12,0,2015,0,N
PA5000757,0,3,19-Nov-2015,-6.30,12,0,2015,0,N
PA5000765,0,20,19-Nov-2015,130.00,0,0,2015,0,N
PA5000766,0,20,19-Nov-2015,135.00,0,0,2015,0,N
PA5000767,0,20,19-Nov-2015,140.00,0,0,2015,0,N
PA5000768,0,20,19-Nov-2015,115.00,0,0,2015,0,N
PA5000769,0,20,19-Nov-2015,80.00,0,0,2015,0,N
PA5000770,0,20,19-Nov-2015,110.00,0,0,2015,0,N
PA5000771,0,20,19-Nov-2015,115.00,0,0,2015,0,N
PA5000772,0,20,19-Nov-2015,155.00,0,0,2015,0,N
PA5000773,0,20,19-Nov-2015,155.00,0,0,2015,0,N
PA5000774,0,20,19-Nov-2015,157.50,0,0,2015,0,N
PA5000775,0,20,19-Nov-2015,120.00,0,0,2015,0,N
PA5000776,0,20,19-Nov-2015,61.00,0,0,2015,0,N
PA5000777,0,20,19-Nov-2015,35.00,0,0,2015,0,N
PA5000778,0,20,19-Nov-2015,37.00,0,0,2015,0,N
PA5000779,0,20,19-Nov-2015,100.00,0,0,2015,0,N
PA5000780,0,20,19-Nov-2015,115.00,0,0,2015,0,N
PA5000781,0,20,19-Nov-2015,105.00,0,0,2015,0,N
PA5000782,0,20,19-Nov-2015,102.50,0,0,2015,0,N
PA5000783,0,20,19-Nov-2015,77.50,0,0,2015,0,N
PA5000784,0,20,19-Nov-2015,80.00,0,0,2015,0,N
PA5000785,0,20,19-Nov-2015,117.50,0,0,2015,0,N
PA5000786,0,20,19-Nov-2015,102.50,0,0,2015,0,N
PA5000787,0,20,19-Nov-2015,190.00,0,0,2015,0,N
PA5000788,0,20,19-Nov-2015,102.50,0,0,2015,0,N
PA5000789,0,20,19-Nov-2015,117.50,0,0,2015,0,N
PA5000790,0,20,19-Nov-2015,95.00,0,0,2015,0,N
PA5000791,0,20,19-Nov-2015,152.50,0,0,2015,0,N
PA5000792,0,20,19-Nov-2015,7.44,0,0,2015,0,N
PA5000793,0,20,19-Nov-2015,12.12,0,0,2015,0,N
PA5000794,0,20,19-Nov-2015,13.80,0,0,2015,0,N
PA5000795,0,20,19-Nov-2015,18.35,0,0,2015,0,N
PA5000796,0,20,19-Nov-2015,27.08,0,0,2015,0,N
PA5000797,0,20,19-Nov-2015,13.45,0,0,2015,0,N
PA5000798,0,20,19-Nov-2015,15.94,0,0,2015,0,N
PA5000799,0,20,19-Nov-2015,6.28,0,0,2015,0,N
PA5000800,0,20,19-Nov-2015,9.89,0,0,2015,0,N
PA5000801,0,20,19-Nov-2015,10.53,0,0,2015,0,N
PA5000802,0,20,19-Nov-2015,25.38,0,0,2015,0,N
PA5000803,0,20,19-Nov-2015,42.82,0,0,2015,0,N
PA5000804,0,20,19-Nov-2015,21.11,0,0,2015,0,N
PA5000805,0,20,19-Nov-2015,21.11,0,0,2015,0,N
PA5000806,0,20,19-Nov-2015,7.23,0,0,2015,0,N
PA5000807,0,20,19-Nov-2015,16.11,0,0,2015,0,N
PA5000808,0,20,19-Nov-2015,9.81,0,0,2015,0,N
PA5000809,0,20,19-Nov-2015,23.92,0,0,2015,0,N
PA5000810,0,20,19-Nov-2015,18.73,0,0,2015,0,N
PA5000811,0,20,19-Nov-2015,8.18,0,0,2015,0,N
PA5000812,0,20,19-Nov-2015,24.86,0,0,2015,0,N
PA5000813,0,20,19-Nov-2015,10.13,0,0,2015,0,N
PA5000814,0,20,19-Nov-2015,15.49,0,0,2015,0,N
PA5000815,0,20,19-Nov-2015,10.76,0,0,2015,0,N
PA5000816,0,20,19-Nov-2015,13.87,0,0,2015,0,N
PA5000817,0,20,19-Nov-2015,19.15,0,0,2015,0,N
PA5000818,0,20,19-Nov-2015,19.09,0,0,2015,0,N
PA5000891,0,3,19-Nov-2015,-10.95,12,0,2015,0,N
PA5000892,0,3,19-Nov-2015,-10.95,12,0,2015,0,N
PA5000893,0,3,19-Nov-2015,-9.65,12,0,2015,0,N
PA5000894,0,3,19-Nov-2015,-9.65,12,0,2015,0,N
PA5001068,0,3,19-Nov-2015,0.05,12,0,2015,0,N
PA5001069,0,3,19-Nov-2015,0.02,12,0,2015,0,N
PA5001070,0,3,19-Nov-2015,-1.00,12,0,2015,0,N
PA5001071,0,3,19-Nov-2015,0.61,12,0,2015,0,N
PA5001072,0,3,19-Nov-2015,-0.26,12,0,2015,0,N
PA5001073,0,3,19-Nov-2015,0.82,12,0,2015,0,N
PA5001074,0,3,19-Nov-2015,-2.23,12,0,2015,0,N
PA5001075,0,3,19-Nov-2015,0.82,12,0,2015,0,N
PA5001080,6,1,19-Nov-2015,463.50,0,0,2015,0,N
PA5001080,6,2,19-Nov-2015,464.00,0,0,2015,0,N
PA5001085,6,1,19-Nov-2015,469.00,0,0,2015,0,N
PA5001085,6,2,19-Nov-2015,469.50,0,0,2015,0,N
PA5001088,6,1,19-Nov-2015,459.25,0,0,2015,0,N
PA5001088,6,2,19-Nov-2015,459.75,0,0,2015,0,N
PA5001103,2,4,19-Nov-2015,37.76,12,12,2015,1,N
PA5001103,2,49,19-Nov-2015,-2.78,12,12,2015,1,N
PA5001125,0,20,19-Nov-2015,34.81,0,0,2015,0,N
PA5001126,0,20,19-Nov-2015,41.00,0,0,2015,0,N
PA5001222,2,4,19-Nov-2015,28.20,1,1,2016,0,N
PA5001222,2,49,19-Nov-2015,-15.05,1,1,2016,0,N
PA5001226,2,4,19-Nov-2015,37.71,12,12,2015,1,N
PA5001226,2,49,19-Nov-2015,-2.830,12,12,2015,1,N
PA5001230,2,4,19-Nov-2015,41.69,12,12,2015,1,N
PA5001230,2,49,19-Nov-2015,1.150,12,12,2015,1,N
PA5001234,2,4,19-Nov-2015,39.88,12,12,2015,1,N
PA5001234,2,49,19-Nov-2015,-0.660,12,12,2015,1,N
PA5001242,2,4,19-Nov-2015,39.86,12,12,2015,1,N
PA5001242,2,49,19-Nov-2015,-0.680,12,12,2015,1,N
PA5001246,2,4,19-Nov-2015,41.87,12,12,2015,1,N
PA5001246,2,49,19-Nov-2015,1.330,12,12,2015,1,N
PA5001283,6,1,19-Nov-2015,44.35,0,0,2015,0,N
PA5001283,6,2,19-Nov-2015,44.45,0,0,2015,0,N
PA5001320,0,3,19-Nov-2015,-8.11,12,0,2015,0,N
PA5001325,8,8,19-Nov-2015,35.880,0,0,2015,0,N
PA5001330,8,1,19-Nov-2015,153.00,0,0,2015,0,N
PA5001330,8,2,19-Nov-2015,155.50,0,0,2015,0,N
PA5001351,2,3,19-Nov-2015,-9.690,0,2,2015,0,N
PA5001351,2,8,19-Nov-2015,33.20,0,2,2015,0,N
PA5001372,2,1,19-Nov-2015,42.40,1,1,2016,1,N
PA5001372,2,2,19-Nov-2015,42.90,1,1,2016,1,N
PA5001372,2,6,19-Nov-2015,-0.85,1,1,2016,1,N
PA5001372,2,7,19-Nov-2015,-0.35,1,1,2016,1,N
PA5001394,2,1,19-Nov-2015,134.53,0,12,2015,0,N
PA5001394,2,2,19-Nov-2015,135.58,0,12,2015,0,N
PA5001394,2,3,19-Nov-2015,6.265,0,12,2015,0,N
PA5001394,2,6,19-Nov-2015,5.74,0,12,2015,0,N
PA5001394,2,7,19-Nov-2015,6.79,0,12,2015,0,N
PA5001394,2,8,19-Nov-2015,135.055,0,12,2015,0,N
PA5001456,8,1,19-Nov-2015,43.04,1,0,2016,0,N
PA5001456,8,2,19-Nov-2015,43.14,1,0,2016,0,N
PA5001456,8,3,19-Nov-2015,0.30,1,0,2016,0,N
PA5001456,8,8,19-Nov-2015,43.09,1,0,2016,0,N
PA5001466,0,8,19-Nov-2015,46.75,10,0,2015,0,N
PA5001478,6,8,19-Nov-2015,424.000,0,12,2015,0,N
PA5001538,8,1,19-Nov-2015,38.03,1,1,2016,1,N
PA5001538,8,2,19-Nov-2015,38.13,1,1,2016,1,N
PA5001538,8,3,19-Nov-2015,0.300,1,1,2016,1,N
PA5001542,8,1,19-Nov-2015,33.23,1,1,2016,1,N
PA5001542,8,2,19-Nov-2015,33.33,1,1,2016,1,N
PA5001542,8,3,19-Nov-2015,0.300,1,1,2016,1,N
PA0013037,0,18,20-Nov-2015,46.25,0,0,2015,0,N
PA0013037,0,19,20-Nov-2015,47.39,0,0,2015,0,N
PA0013037,0,50,20-Nov-2015,5.18,0,0,2015,0,N
PA0013038,0,18,20-Nov-2015,42.63,0,0,2015,0,N
PA0013038,0,19,20-Nov-2015,47.06,0,0,2015,0,N
PA0013038,0,50,20-Nov-2015,1.74,0,0,2015,0,N
PA0013039,0,18,20-Nov-2015,46.30,0,0,2015,0,N
PA0013039,0,19,20-Nov-2015,47.13,0,0,2015,0,N
PA0013039,0,50,20-Nov-2015,3.75,0,0,2015,0,N
PA0013040,0,18,20-Nov-2015,53.41,0,0,2015,0,N
PA0013040,0,19,20-Nov-2015,54.24,0,0,2015,0,N
PA0013040,0,50,20-Nov-2015,10.86,0,0,2015,0,N
PA0013041,0,18,20-Nov-2015,45.07,0,0,2015,0,N
PA0013041,0,19,20-Nov-2015,49.50,0,0,2015,0,N
PA0013041,0,50,20-Nov-2015,4.18,0,0,2015,0,N
PA0013042,0,18,20-Nov-2015,49.76,0,0,2015,0,N
PA0013042,0,19,20-Nov-2015,50.90,0,0,2015,0,N
PA0013042,0,50,20-Nov-2015,8.69,0,0,2015,0,N
PA0013043,0,18,20-Nov-2015,46.43,0,0,2015,0,N
PA0013043,0,19,20-Nov-2015,47.52,0,0,2015,0,N
PA0013043,0,50,20-Nov-2015,5.89,0,0,2015,0,N
PA0013044,0,18,20-Nov-2015,43.38,0,0,2015,0,N
PA0013044,0,19,20-Nov-2015,43.38,0,0,2015,0,N
PA0013044,0,50,20-Nov-2015,5.87,0,0,2015,0,N
PA0013045,0,18,20-Nov-2015,44.77,0,0,2015,0,N
PA0013045,0,19,20-Nov-2015,46.91,0,0,2015,0,N
PA0013045,0,50,20-Nov-2015,4.25,0,0,2015,0,N
PA0013046,0,18,20-Nov-2015,51.01,0,0,2015,0,N
PA0013046,0,19,20-Nov-2015,53.16,0,0,2015,0,N
PA0013046,0,50,20-Nov-2015,10.49,0,0,2015,0,N
PA0013047,0,18,20-Nov-2015,47.48,0,0,2015,0,N
PA0013047,0,19,20-Nov-2015,47.48,0,0,2015,0,N
PA0013047,0,50,20-Nov-2015,9.97,0,0,2015,0,N
PA0013048,0,18,20-Nov-2015,49.46,0,0,2015,0,N
PA0013048,0,19,20-Nov-2015,50.55,0,0,2015,0,N
PA0013048,0,50,20-Nov-2015,8.92,0,0,2015,0,N
PA0013049,0,18,20-Nov-2015,45.86,0,0,2015,0,N
PA0013049,0,19,20-Nov-2015,45.86,0,0,2015,0,N
PA0013049,0,50,20-Nov-2015,7.90,0,0,2015,0,N
PA0013050,0,18,20-Nov-2015,38.99,0,0,2015,0,N
PA0013050,0,19,20-Nov-2015,41.12,0,0,2015,0,N
PA0013050,0,50,20-Nov-2015,0.49,0,0,2015,0,N
PA0013051,0,18,20-Nov-2015,41.71,0,0,2015,0,N
PA0013051,0,19,20-Nov-2015,43.90,0,0,2015,0,N
PA0013051,0,50,20-Nov-2015,3.22,0,0,2015,0,N
PA0013052,0,18,20-Nov-2015,50.39,0,0,2015,0,N
PA0013052,0,19,20-Nov-2015,52.58,0,0,2015,0,N
PA0013052,0,50,20-Nov-2015,11.90,0,0,2015,0,N
PA0013053,0,18,20-Nov-2015,44.79,0,0,2015,0,N
PA0013053,0,19,20-Nov-2015,46.93,0,0,2015,0,N
PA0013053,0,50,20-Nov-2015,6.30,0,0,2015,0,N
PA0013054,0,18,20-Nov-2015,49.03,0,0,2015,0,N
PA0013054,0,19,20-Nov-2015,49.03,0,0,2015,0,N
PA0013054,0,50,20-Nov-2015,11.07,0,0,2015,0,N
PA0013055,0,18,20-Nov-2015,46.62,0,0,2015,0,N
PA0013055,0,19,20-Nov-2015,48.65,0,0,2015,0,N
PA0013055,0,50,20-Nov-2015,4.83,0,0,2015,0,N
PA0013056,0,18,20-Nov-2015,47.66,0,0,2015,0,N
PA0013056,0,19,20-Nov-2015,47.66,0,0,2015,0,N
PA0013056,0,50,20-Nov-2015,5.49,0,0,2015,0,N
PA0013057,0,18,20-Nov-2015,48.25,0,0,2015,0,N
PA0013057,0,19,20-Nov-2015,49.28,0,0,2015,0,N
PA0013057,0,50,20-Nov-2015,3.64,0,0,2015,0,N
PA0013058,0,18,20-Nov-2015,53.19,0,0,2015,0,N
PA0013058,0,19,20-Nov-2015,54.22,0,0,2015,0,N
PA0013058,0,50,20-Nov-2015,8.58,0,0,2015,0,N
PA0013059,0,18,20-Nov-2015,50.39,0,0,2015,0,N
PA0013059,0,19,20-Nov-2015,50.39,0,0,2015,0,N
PA0013059,0,50,20-Nov-2015,8.23,0,0,2015,0,N
PA0013060,0,18,20-Nov-2015,48.48,0,0,2015,0,N
PA0013060,0,19,20-Nov-2015,50.51,0,0,2015,0,N
PA0013060,0,50,20-Nov-2015,6.68,0,0,2015,0,N
PA0013061,0,18,20-Nov-2015,45.68,0,0,2015,0,N
PA0013061,0,19,20-Nov-2015,47.44,0,0,2015,0,N
PA0013061,0,50,20-Nov-2015,4.09,0,0,2015,0,N
PA0013062,0,18,20-Nov-2015,44.91,0,0,2015,0,N
PA0013062,0,19,20-Nov-2015,47.42,0,0,2015,0,N
PA0013062,0,50,20-Nov-2015,3.12,0,0,2015,0,N
PA0013063,0,18,20-Nov-2015,47.74,0,0,2015,0,N
PA0013063,0,19,20-Nov-2015,49.80,0,0,2015,0,N
PA0013063,0,50,20-Nov-2015,3.79,0,0,2015,0,N
PA0013064,0,18,20-Nov-2015,52.73,0,0,2015,0,N
PA0013064,0,19,20-Nov-2015,54.79,0,0,2015,0,N
PA0013064,0,50,20-Nov-2015,8.78,0,0,2015,0,N
PA0013065,0,18,20-Nov-2015,46.63,0,0,2015,0,N
PA0013065,0,19,20-Nov-2015,49.14,0,0,2015,0,N
PA0013065,0,50,20-Nov-2015,4.84,0,0,2015,0,N
PA0013066,0,18,20-Nov-2015,49.94,0,0,2015,0,N
PA0013066,0,19,20-Nov-2015,51.71,0,0,2015,0,N
PA0013066,0,50,20-Nov-2015,8.35,0,0,2015,0,N
PA0013067,0,18,20-Nov-2015,39.93,0,0,2015,0,N
PA0013067,0,19,20-Nov-2015,41.92,0,0,2015,0,N
PA0013067,0,50,20-Nov-2015,1.44,0,0,2015,0,N
PA0013068,0,18,20-Nov-2015,36.06,0,0,2015,0,N
PA0013068,0,19,20-Nov-2015,38.61,0,0,2015,0,N
PA0013068,0,50,20-Nov-2015,2.62,0,0,2015,0,N
PA0013069,0,18,20-Nov-2015,45.59,0,0,2015,0,N
PA0013069,0,19,20-Nov-2015,47.74,0,0,2015,0,N
PA0013070,0,18,20-Nov-2015,51.72,0,0,2015,0,N
PA0013070,0,19,20-Nov-2015,53.87,0,0,2015,0,N
PA0013071,0,18,20-Nov-2015,44.20,0,0,2015,0,N
PA0013071,0,19,20-Nov-2015,46.76,0,0,2015,0,N
PA0013071,0,50,20-Nov-2015,10.77,0,0,2015,0,N
PA0013072,0,18,20-Nov-2015,45.04,0,0,2015,0,N
PA0013072,0,19,20-Nov-2015,47.02,0,0,2015,0,N
PA0013072,0,50,20-Nov-2015,6.54,0,0,2015,0,N
PA0013073,0,18,20-Nov-2015,43.08,0,0,2015,0,N
PA0013073,0,19,20-Nov-2015,45.30,0,0,2015,0,N
PA0013074,0,18,20-Nov-2015,49.19,0,0,2015,0,N
PA0013074,0,19,20-Nov-2015,51.41,0,0,2015,0,N
PA0013075,0,18,20-Nov-2015,43.31,0,0,2015,0,N
PA0013075,0,19,20-Nov-2015,45.26,0,0,2015,0,N
PA0013076,0,18,20-Nov-2015,46.66,0,0,2015,0,N
PA0013076,0,19,20-Nov-2015,48.61,0,0,2015,0,N
PA0013077,0,18,20-Nov-2015,40.14,0,0,2015,0,N
PA0013077,0,19,20-Nov-2015,42.15,0,0,2015,0,N
PA0013078,0,18,20-Nov-2015,42.86,0,0,2015,0,N
PA0013078,0,19,20-Nov-2015,44.87,0,0,2015,0,N
PA0013079,0,18,20-Nov-2015,43.30,0,0,2015,0,N
PA0013079,0,19,20-Nov-2015,45.40,0,0,2015,0,N
PA0013080,0,18,20-Nov-2015,46.93,0,0,2015,0,N
PA0013080,0,19,20-Nov-2015,49.03,0,0,2015,0,N
PA0013081,0,18,20-Nov-2015,41.72,0,0,2015,0,N
PA0013081,0,19,20-Nov-2015,43.80,0,0,2015,0,N
PA0013082,0,18,20-Nov-2015,45.36,0,0,2015,0,N
PA0013082,0,19,20-Nov-2015,47.44,0,0,2015,0,N
PA5000433,2,8,20-Nov-2015,42.99,0,0,2015,0,N
PA5000434,6,8,20-Nov-2015,44.33,0,0,2015,0,N
PA5000434,8,3,20-Nov-2015,2.75,0,0,2015,0,N
PA5000435,6,3,20-Nov-2015,0.20,0,0,2015,0,N
PA5000435,6,8,20-Nov-2015,41.78,0,0,2015,0,N
PA5000436,6,3,20-Nov-2015,-0.80,0,0,2015,0,N
PA5000436,6,8,20-Nov-2015,40.78,0,0,2015,0,N
PA5000438,6,3,20-Nov-2015,-1.56,0,0,2015,0,N
PA5000438,6,8,20-Nov-2015,40.02,0,0,2015,0,N
PA5000440,8,3,20-Nov-2015,2.00,0,0,2015,0,N
PA5000440,8,8,20-Nov-2015,42.45,0,0,2015,0,N
PA5000441,6,8,20-Nov-2015,42.58,0,0,2015,0,N
PA5000441,8,3,20-Nov-2015,1.00,0,0,2015,0,N
PA5000443,6,3,20-Nov-2015,-0.48,0,0,2015,0,N
PA5000443,6,8,20-Nov-2015,41.11,0,0,2015,0,N
PA5000446,8,3,20-Nov-2015,3.10,0,0,2015,0,N
PA5000446,8,8,20-Nov-2015,41.55,0,0,2015,0,N
PA5000447,6,3,20-Nov-2015,-1.70,0,0,2015,0,N
PA5000447,6,8,20-Nov-2015,39.88,0,0,2015,0,N
PA5000448,6,3,20-Nov-2015,0.00,0,0,2015,0,N
PA5000448,6,8,20-Nov-2015,41.58,0,0,2015,0,N
PA5000450,6,3,20-Nov-2015,-1.95,0,0,2015,0,N
PA5000450,6,8,20-Nov-2015,39.63,0,0,2015,0,N
PA5000451,6,3,20-Nov-2015,0.25,0,0,2015,0,N
PA5000451,6,8,20-Nov-2015,41.83,0,0,2015,0,N
PA5000452,6,3,20-Nov-2015,-1.02,0,0,2015,0,N
PA5000452,6,8,20-Nov-2015,40.56,0,0,2015,0,N
PA5000454,6,3,20-Nov-2015,-3.56,0,0,2015,0,N
PA5000454,6,8,20-Nov-2015,38.02,0,0,2015,0,N
PA5000455,6,3,20-Nov-2015,-2.30,0,0,2015,0,N
PA5000455,6,8,20-Nov-2015,39.28,0,0,2015,0,N
PA5000456,6,8,20-Nov-2015,43.08,0,0,2015,0,N
PA5000457,2,8,20-Nov-2015,40.00,0,0,2015,0,N
PA5000459,8,3,20-Nov-2015,2.00,0,0,2015,0,N
PA5000459,8,8,20-Nov-2015,42.45,0,0,2015,0,N
PA5000460,8,3,20-Nov-2015,0.32,0,0,2015,0,N
PA5000460,8,8,20-Nov-2015,43.65,0,0,2015,0,N
PA5000461,6,8,20-Nov-2015,42.52,0,0,2015,0,N
PA5000461,8,3,20-Nov-2015,0.94,0,0,2015,0,N
PA5000463,6,3,20-Nov-2015,0.55,0,0,2015,0,N
PA5000463,6,8,20-Nov-2015,42.13,0,0,2015,0,N
PA5000464,8,3,20-Nov-2015,0.00,0,0,2015,0,N
PA5000464,8,8,20-Nov-2015,42.28,0,0,2015,0,N
PA5000465,8,3,20-Nov-2015,-0.16,0,0,2015,0,N
PA5000465,8,8,20-Nov-2015,39.87,0,0,2015,0,N
PA5000466,6,3,20-Nov-2015,0.26,0,0,2015,0,N
PA5000466,6,8,20-Nov-2015,41.84,0,0,2015,0,N
PA5000467,6,3,20-Nov-2015,0.22,0,0,2015,0,N
PA5000467,6,8,20-Nov-2015,41.80,0,0,2015,0,N
PA5000468,6,3,20-Nov-2015,-1.04,0,0,2015,0,N
PA5000468,6,8,20-Nov-2015,40.54,0,0,2015,0,N
PA5000469,6,3,20-Nov-2015,0.25,0,0,2015,0,N
PA5000469,6,8,20-Nov-2015,41.83,0,0,2015,0,N
PA5000470,6,3,20-Nov-2015,-4.03,0,0,2015,0,N
PA5000470,6,8,20-Nov-2015,37.55,0,0,2015,0,N
PA5000473,6,3,20-Nov-2015,0.08,0,0,2015,0,N
PA5000473,6,8,20-Nov-2015,41.66,0,0,2015,0,N
PA5000474,6,3,20-Nov-2015,-2.33,0,0,2015,0,N
PA5000474,6,8,20-Nov-2015,39.25,0,0,2015,0,N
PA5000475,6,3,20-Nov-2015,-3.50,0,0,2015,0,N
PA5000475,6,8,20-Nov-2015,38.08,0,0,2015,0,N
PA5000476,8,3,20-Nov-2015,2.50,0,0,2015,0,N
PA5000476,8,8,20-Nov-2015,42.95,0,0,2015,0,N
PA5000478,6,8,20-Nov-2015,348.10,0,0,2015,0,N
PA5000479,6,8,20-Nov-2015,350.80,0,0,2015,0,N
PA5000480,2,8,20-Nov-2015,59.64,0,0,2015,0,N
PA5000481,6,8,20-Nov-2015,354.20,0,0,2015,0,N
PA5000482,6,8,20-Nov-2015,357.00,0,0,2015,0,N
PA5000483,2,8,20-Nov-2015,40.81,0,0,2015,0,N
PA5000484,6,8,20-Nov-2015,207.95,0,0,2015,0,N
PA5000485,6,8,20-Nov-2015,211.70,0,0,2015,0,N
PA5000486,6,8,20-Nov-2015,189.40,0,0,2015,0,N
PA5000487,6,8,20-Nov-2015,176.00,0,0,2015,0,N
PA5000488,2,8,20-Nov-2015,213.40,0,0,2015,0,N
PA5000489,8,8,20-Nov-2015,232.77,0,0,2015,0,N
PA5000490,8,8,20-Nov-2015,202.51,0,0,2015,0,N
PA5000491,8,8,20-Nov-2015,198.00,0,0,2015,0,N
PA5000494,2,8,20-Nov-2015,32.16,0,0,2015,0,N
PA5000496,2,8,20-Nov-2015,31.20,0,0,2015,0,N
PA5000498,2,8,20-Nov-2015,30.08,0,0,2015,0,N
PA5000499,8,8,20-Nov-2015,52.57,0,0,2015,0,N
PA5000500,2,8,20-Nov-2015,140.41,0,0,2015,0,N
PA5000501,6,8,20-Nov-2015,426.15,0,0,2015,0,N
PA5000502,6,8,20-Nov-2015,426.05,0,0,2015,0,N
PA5000503,6,8,20-Nov-2015,407.50,0,0,2015,0,N
PA5000504,6,8,20-Nov-2015,403.75,0,0,2015,0,N
PA5000505,8,8,20-Nov-2015,55.07,0,0,2015,0,N
PA5000506,8,8,20-Nov-2015,58.37,0,0,2015,0,N
PA5000509,2,8,20-Nov-2015,130.88,0,0,2015,0,N
PA5000510,2,8,20-Nov-2015,115.15,0,0,2015,0,N
PA5000513,2,8,20-Nov-2015,144.03,0,0,2015,0,N
PA5000514,2,8,20-Nov-2015,133.20,0,0,2015,0,N
PA5000515,8,8,20-Nov-2015,55.34,0,0,2015,0,N
PA5000517,8,8,20-Nov-2015,56.94,0,0,2015,0,N
PA5000520,8,8,20-Nov-2015,57.70,0,0,2015,0,N
PA5000521,8,8,20-Nov-2015,53.82,0,0,2015,0,N
PA5000522,6,8,20-Nov-2015,442.10,0,0,2015,0,N
PA5000523,8,8,20-Nov-2015,55.79,0,0,2015,0,N
PA5000524,2,8,20-Nov-2015,128.06,0,0,2015,0,N
PA5000525,6,8,20-Nov-2015,422.65,0,0,2015,0,N
PA5000526,2,8,20-Nov-2015,142.53,0,0,2015,0,N
PA5000527,2,8,20-Nov-2015,135.38,0,0,2015,0,N
PA5000529,6,8,20-Nov-2015,402.50,0,0,2015,0,N
PA5000530,6,8,20-Nov-2015,392.65,0,0,2015,0,N
PA5000531,8,8,20-Nov-2015,439.70,0,0,2015,0,N
PA5000532,8,8,20-Nov-2015,415.40,0,0,2015,0,N
PA5000533,2,8,20-Nov-2015,124.33,0,0,2015,0,N
PA5000534,2,8,20-Nov-2015,117.38,0,0,2015,0,N
PA5000535,6,8,20-Nov-2015,300.50,0,0,2015,0,N
PA5000536,6,8,20-Nov-2015,297.00,0,0,2015,0,N
PA5000537,6,8,20-Nov-2015,293.88,0,0,2015,0,N
PA5000538,6,3,20-Nov-2015,-1.70,0,0,2015,0,N
PA5000538,6,8,20-Nov-2015,39.88,0,0,2015,0,N
PA5000539,6,3,20-Nov-2015,-0.96,0,0,2015,0,N
PA5000539,6,8,20-Nov-2015,40.62,0,0,2015,0,N
PA5000540,6,3,20-Nov-2015,-2.10,0,0,2015,0,N
PA5000540,6,8,20-Nov-2015,41.58,0,0,2015,0,N
PA5000542,6,8,20-Nov-2015,42.68,0,0,2015,0,N
PA5000543,6,8,20-Nov-2015,43.49,0,0,2015,0,N
PA5000544,6,8,20-Nov-2015,44.42,0,0,2015,0,N
PA5000546,6,8,20-Nov-2015,38.92,0,0,2015,0,N
PA5000547,6,8,20-Nov-2015,40.45,0,0,2015,0,N
PA5000548,6,8,20-Nov-2015,41.29,0,0,2015,0,N
PA5000549,8,3,20-Nov-2015,-1.68,0,0,2015,0,N
PA5000549,8,8,20-Nov-2015,40.20,0,0,2015,0,N
PA5000550,9,8,20-Nov-2015,40.82,0,0,2015,0,N
PA5000551,9,8,20-Nov-2015,42.01,0,0,2015,0,N
PA5000552,9,8,20-Nov-2015,43.14,0,0,2015,0,N
PA5000556,2,8,20-Nov-2015,130.40,0,0,2015,0,N
PA5000644,2,8,20-Nov-2015,132.02,0,0,2015,0,N
PA5000654,8,3,20-Nov-2015,1.44,0,0,2015,0,N
PA5000654,8,8,20-Nov-2015,56.97,0,0,2015,0,N
PA5000759,2,8,20-Nov-2015,138.97,0,0,2015,0,N
PA5000762,2,8,20-Nov-2015,129.33,0,0,2015,0,N
PA5000819,6,6,20-Nov-2015,-5.85,0,0,2015,0,N
PA5000819,6,7,20-Nov-2015,-5.35,0,0,2015,0,N
PA5001081,6,1,20-Nov-2015,455.60,0,0,2015,0,N
PA5001081,6,2,20-Nov-2015,456.10,0,0,2015,0,N
PA5001086,6,1,20-Nov-2015,461.65,0,0,2015,0,N
PA5001086,6,2,20-Nov-2015,462.15,0,0,2015,0,N
PA5001093,8,1,20-Nov-2015,219.20,0,0,2015,0,N
PA5001093,8,2,20-Nov-2015,220.20,0,0,2015,0,N
PA5001093,8,6,20-Nov-2015,-4.00,0,0,2015,0,N
PA5001093,8,7,20-Nov-2015,-3.00,0,0,2015,0,N
PA5001095,8,1,20-Nov-2015,47.70,0,0,2015,0,N
PA5001095,8,2,20-Nov-2015,47.82,0,0,2015,0,N
PA5001095,8,6,20-Nov-2015,0.27,0,0,2015,0,N
PA5001095,8,7,20-Nov-2015,0.47,0,0,2015,0,N
PA5001102,0,3,20-Nov-2015,-0.25,0,0,2015,0,N
PA5001110,8,1,20-Nov-2015,214.75,0,0,2015,0,N
PA5001110,8,2,20-Nov-2015,215.75,0,0,2015,0,N
PA5001110,8,6,20-Nov-2015,-2.70,0,0,2015,0,N
PA5001110,8,7,20-Nov-2015,-1.70,0,0,2015,0,N
PA5001223,2,4,20-Nov-2015,28.27,0,0,2015,0,N
PA5001223,2,49,20-Nov-2015,-14.81,0,0,2015,0,N
PA5001229,2,4,20-Nov-2015,37.64,0,0,2015,0,N
PA5001229,2,49,20-Nov-2015,-3.182,0,0,2015,0,N
PA5001233,2,4,20-Nov-2015,41.68,0,0,2015,0,N
PA5001233,2,49,20-Nov-2015,0.862,0,0,2015,0,N
PA5001237,2,4,20-Nov-2015,40.17,0,0,2015,0,N
PA5001237,2,49,20-Nov-2015,-0.646,0,0,2015,0,N
PA5001245,2,4,20-Nov-2015,40.09,0,0,2015,0,N
PA5001245,2,49,20-Nov-2015,-0.730,0,0,2015,0,N
PA5001249,2,4,20-Nov-2015,42.12,0,0,2015,0,N
PA5001249,2,49,20-Nov-2015,1.298,0,0,2015,0,N
PA5001286,6,1,20-Nov-2015,43.71,0,0,2015,0,N
PA5001286,6,2,20-Nov-2015,43.81,0,0,2015,0,N
PA5001310,8,1,20-Nov-2015,44.32,0,0,2015,0,N
PA5001310,8,2,20-Nov-2015,44.42,0,0,2015,0,N
PA5001310,8,3,20-Nov-2015,2.666,0,0,2015,0,N
PA5001313,2,1,20-Nov-2015,154.06,0,0,2015,0,N
PA5001313,2,2,20-Nov-2015,155.50,0,0,2015,0,N
PA5001323,8,8,20-Nov-2015,35.618,0,0,2015,0,N
PA5001329,8,1,20-Nov-2015,44.29,0,1,2015,0,N
PA5001329,8,2,20-Nov-2015,44.39,0,1,2015,0,N
PA5001329,8,3,20-Nov-2015,2.830,0,1,2015,0,N
PA5001331,8,1,20-Nov-2015,152.15,0,0,2015,0,N
PA5001331,8,2,20-Nov-2015,154.70,0,0,2015,0,N
PA5001354,2,8,20-Nov-2015,36.34,0,0,2015,0,N
PA5001375,2,1,20-Nov-2015,42.15,0,0,2015,0,N
PA5001375,2,2,20-Nov-2015,42.70,0,0,2015,0,N
PA5001375,2,6,20-Nov-2015,-0.93,0,0,2015,0,N
PA5001375,2,7,20-Nov-2015,-0.38,0,0,2015,0,N
PA5001459,8,3,20-Nov-2015,0.32,0,0,2015,0,N
PA5001459,8,8,20-Nov-2015,43.10,0,0,2015,0,N
PA5001464,8,8,20-Nov-2015,42.892,0,0,2015,0,N
PA5001465,8,8,20-Nov-2015,37.982,0,0,2015,0,N
PA5001512,0,3,20-Nov-2015,-8.15,12,0,2015,0,N
PA5001513,0,3,20-Nov-2015,-10.55,12,0,2015,0,N
PA5001514,0,3,20-Nov-2015,-5.85,12,0,2015,0,N
PA5001541,8,1,20-Nov-2015,38.03,0,0,2015,0,N
PA5001541,8,2,20-Nov-2015,38.13,0,0,2015,0,N
PA5001541,8,3,20-Nov-2015,0.420,0,0,2015,0,N
PA5001545,8,1,20-Nov-2015,33.47,0,0,2015,0,N
PA5001545,8,2,20-Nov-2015,33.57,0,0,2015,0,N
PA5001545,8,3,20-Nov-2015,0.660,0,0,2015,0,N
