Module,Path,FileName,Description,Folder,Time,LocalTime,LocalTimeZone
CoalAPI,DATA\DAMCOAL,dcm,Argus McCloskey coal,\DAMCOAL,15:30:00 EST,15:30:00,Eastern Standard Time
DABI,DATA\DABI,dabi,Argus Bitumen Index,\DABI,08:00:00 EST,21:00:00,Singapore Standard Time
DABM,DATA\DABM,dabm,Argus Biomass Markets,\DABM,15:00:00 EST,20:00:00,GMT Standard Time
DABOL,DATA\DBASEOILS,dbo,Argus Base Oils daily update,\DBASEOILS,21:30:00 EST,20:30:00,Central Standard Time
DABOLW,DATA\DBASEOILS,dbow,Argus Base Oils weekly,\DBASEOILS,08:00:00 EST,21:00:00,Singapore Standard Time
DAGM,DATA\DAGM,dagm,Argus Global Markets,\DAGM,00:45:00 EST,00:45:00,Eastern Standard Time
DAGMNB,DATA\DAGMNB,dagmnb,Argus Global Markets netbacks,\DAGMNB,16:45:00 EST,21:45:00,GMT Standard Time
DAMGIO,DATA\DAMGIO,damgio,Argus Mideast Gulf and Indian Ocean Products,\DAMGIO,09:00:00 EST,22:00:00,Singapore Standard Time
DAMTR,DATA\DAMTR,amtr,Argus Russian Motor Fuel,\DAMTR,11:00:00 EST,19:00:00,Russian Standard Time
DAMarineF,DATA\DAMarineF,damarinef,Argus Marine Fuels,\DAMarineF,20:00:00 EST,19:00:00,Central Standard Time
DAPI10,DATA\DAMCOAL,dcm2,Argus McCloskey coal API10 supplemental,\DAMCOAL,17:00:00 EST,17:00:00,Eastern Standard Time
DAPIC,DATA\DAPIC,dapic,Argus McCloskey coking coal,\DAPIC,06:30:00 EST,19:30:00,Singapore Standard Time
DARK,DATA\DARK,dark,Argus Caspian Market,\DARK,11:00:00 EST,19:00:00,Russian Standard Time
DARKEN,DATA\DARKEN,darken,Argus Caspian Market (English),\DARKEN,10:00:00 EST,15:00:00,GMT Standard Time
DARM,DATA\DARM,darm,Russian domestic Fuel Oil market,\DARM,11:00:00 EST,19:00:00,Russian Standard Time
DASCI,DATA\DCRDEASCI,dasci,Argus Sour Crude index,\DCRDEASCI,18:00:00 EST,17:00:00,Central Standard Time
DAUSE,DATA\DAUSE,dause,Argus US Electricity,\DAUSE,21:00:00 EST,20:00:00,Central Standard Time
DAmApsh,DATA\DAmAsphalt,damasph,Argus Americas Asphalt,\DAmAsphalt,22:30:00 EST,22:30:00,Eastern Standard Time
DAmmonia,DATA\DAmmonia,dammonia,FMB Weekly Ammonia,\DAmmonia,18:45:00 EST,23:45:00,GMT Standard Time
DBIOFUELS,DATA\DBIOFUELS,dbio,Argus Biofuels,\DBIOFUELS,16:00:00 EST,21:00:00,GMT Standard Time
DBenzene,DATA\DBenzene,dbenzene,Argus Benzene daily,\DBenzene,21:00:00 EST,20:00:00,Central Standard Time
DBenzeneWeekly,Data\DBenzeneWeekly,dbenzeneweekly,Argus DeWitt Benzene and Derivatives,\DBenzeneWeekly,21:30:00 EST,20:30:00,Central Standard Time
DBitumen,DATA\DBitumen,dbitumen,Argus Bitumen,\DBitumen,22:30:00 EST,22:30:00,Eastern Standard Time
DBlackSeaSteel,DATA\DBlackSeaSteel,dblackseasteel,Argus Black Sea Steel,\DBlackSeaSteel,16:00:00 EST,21:00:00,GMT Standard Time
DButadiene,DATA\DButadiene,dbutadiene,Argus DeWitt Butadiene,\DButadiene,22:30:00 EST,22:30:00,Eastern Standard Time
DCI,DATA\DCOAL,dci,Argus Coal Daily International,\DCOAL,16:30:00 EST,21:30:00,GMT Standard Time
DCISCR,DATA\DCISCR,dciscr,Argus CIS Crude export,\DCISCR,11:00:00 EST,19:00:00,Russian Standard Time
DCISPR,DATA\DCISPR,dcispr,Argus CIS products export,\DCISPR,11:00:00 EST,19:00:00,Russian Standard Time
DCTR,DATA\DCTR,dctr,Argus Coal Transportation,\DCTR,20:00:00 EST,20:00:00,Eastern Standard Time
DEEM,DATA\DEEM,deem,Argus European emissions,\DEEM,16:00:00 EST,21:00:00,GMT Standard Time
DEL,DATA\DAEE,del,Argus European electricity,\DAEE,16:00:00 EST,21:00:00,GMT Standard Time
DEthylene,DATA\DEthylene,dethylene,Argus DeWitt Ethylene,\DEthylene,22:30:00 EST,22:30:00,Eastern Standard Time
DEuroFert,DATA\DEuroFert,deurofert,Argus FMB Fertilizer Europe,\DEuroFert,18:45:00 EST,23:45:00,GMT Standard Time
DFBR,DATA\DFMBBRF,dfmbbrf,Argus FMB Brazil Fertilizer data,\DFMBBRF,23:00:00 EST,23:00:00,Eastern Standard Time
DFNA,DATA\DFNA,dfna,Argus FMB North American Fertilizer data,\DFNA,22:00:00 EST,22:00:00,Eastern Standard Time
DFR1,DATA\DFR,dfr1,Argus Freight,\DFR,18:00:00 EST,17:00:00,Central Standard Time
DFSUE,DATA\DFSUE,dfsue,Argus FSU Energy,\DFSUE,09:00:00 EST,14:00:00,GMT Standard Time
DFertilizerIndex,DATA\DFertilizerIndex,DFertilizerIndex,Fertilizer Index,\DFertilizerIndex,05:15:00 EST,10:15:00,GMT Standard Time
DHC,DATA\DCRDEUS,dhc,Argus US crude,\DCRDEUS,20:30:00 EST,20:30:00,Eastern Standard Time
DHCA,DATA\DCRDEUS,dhca,Argus US crude - 17:00 section (Houston time),\DCRDEUS,18:00:00 EST,17:00:00,Central Standard Time
DHP,DATA\DUSPR,dhp,Argus US products,\DUSPR,19:30:00 EST,18:30:00,Central Standard Time
DHPS,DATA\DUSPR,dhps,Argus US products - 17:00 section (Houston time),\DUSPR,18:00:00 EST,17:00:00,Central Standard Time
DHydrocarbons,Data\DHydrocarbons,dhydrocarbons,Argus DeWitt C5 and Hydrocarbons,\DHydrocarbons,23:00:00 EST,22:00:00,Central Standard Time
DIA,DATA\DASPH,dia,Argus International asphalt,\DASPH,22:30:00 EST,22:30:00,Eastern Standard Time
DICI,DATA\DICI,dici,Argus Indonesian coal index,\DICI,08:00:00 EST,21:00:00,Singapore Standard Time
DJETFUEL,DATA\DJETFUEL,djetfuel,Argus Jet Fuel,\DJETFUEL,21:00:00 EST,20:00:00,Central Standard Time
DLC,DATA\DCRDEEU,dlc,Argus European crude,\DCRDEEU,16:00:00 EST,21:00:00,GMT Standard Time
DLNG,DATA\DLNG,dlng,Argus liquified natural gas,\DLNG,18:45:00 EST,23:45:00,GMT Standard Time
DLNGD,DATA\DLNGD,dlngd,Argus LNG Daily,\DLNGD,16:00:00 EST,21:00:00,GMT Standard Time
DLP,DATA\DEURO,dlp,Argus European products,\DEURO,16:00:00 EST,21:00:00,GMT Standard Time
DMC,DATA\DCRDEASIA,dmc,Argus Asia & Midday European crude,\DCRDEASIA,10:00:00 EST,23:00:00,Singapore Standard Time
DMTBER,Data\DMTBER,dmtber,Argus Russian MTBE Weekly,\DMTBER,11:00:00 EST,19:00:00,Russian Standard Time
DMethanol,DATA\DMethanol,dmethanol,JJ&A Global Methanol Report,\DMethanol,22:30:00 EST,22:30:00,Eastern Standard Time
DMinorMetals,DATA\DMinorMetals,DMinorMetals,Argus Minor Metals,\DMinorMetals,19:00:00 EST,18:00:00,Central Standard Time
DNEFTR,DATA\DNEFTR,dneftr,Argus Neftetransport data,\DNEFTR,10:00:00 EST,18:00:00,Russian Standard Time
DNG,DATA\DENG,dng,Argus European natural gas,\DENG,16:00:00 EST,21:00:00,GMT Standard Time
DNGA,DATA\DNGA,dnga,Argus Natural Gas Americas,\DNGA,20:00:00 EST,20:00:00,Eastern Standard Time
DNGL,DATA\DNGL,dngl,Argus Americas NGL,\DNGL,21:00:00 EST,20:00:00,Central Standard Time
DNitrogen,DATA\DNitrogen,dnitrogen,FMB Weekly Nitrogen,\DNitrogen,18:45:00 EST,23:45:00,GMT Standard Time
DOctane,DATA\DOctane,doctane,Argus DeWitt Fuels and Octane,\DOctane,22:30:00 EST,22:30:00,Eastern Standard Time
DOlefinsDaily,DATA\DOlefinsDaily,dolefinsdaily,Argus Olefins Daily,\DOlefinsDaily,21:00:00 EST,20:00:00,Central Standard Time
DPC,DATA\DPC,dpc,Argus petroleum coke,\DPC,23:45:00 EST,23:45:00,Eastern Standard Time
DPG,DATA\DLPG,dpg,Argus International LPG,\DLPG,19:00:00 EST,18:00:00,Central Standard Time
DPGAsia,DATA\DLPG,dpgasia,Argus LPG - Asia section,\DLPG,12:00:00 EST,17:00:00,GMT Standard Time
DPGEurope,DATA\DLPG,dpgeurope,Argus LPG - European section,\DLPG,15:00:00 EST,20:00:00,GMT Standard Time
DPGUS,DATA\DLPG,dpgus,Argus LPG - US section,\DLPG,19:00:00 EST,18:00:00,Central Standard Time
DPTR,DATA\DPTR,dptr,Argus Petroleum Transportation North America,\DPTR,22:30:00 EST,22:30:00,Eastern Standard Time
DPhosphate,DATA\DPhosphate,dphosphate,FMB Weekly Phosphates,\DPhosphate,18:45:00 EST,23:45:00,GMT Standard Time
DPolymers,DATA\DPolymers,dpolymers,Argus DeWitt Polymers,\DPolymers,22:30:00 EST,22:30:00,Eastern Standard Time
DPotash,DATA\DPotash,dpotash,FMB Weekly Potash,\DPotash,18:45:00 EST,23:45:00,GMT Standard Time
DPropylene,DATA\DPropylene,dpropylene,Argus DeWitt Propylene,\DPropylene,22:30:00 EST,22:30:00,Eastern Standard Time
DRGFP,DATA\DRGFP,drgfp,Argus Russian Generation Fuels and Power,\DRGFP,15:00:00 EST,20:00:00,GMT Standard Time
DRLPG,DATA\DRLPG,drlpg,Argus Russian LPG and Condensate,\DRLPG,12:00:00 EST,20:00:00,Russian Standard Time
DRNR,DATA\DRNR,drnr,Argus Russian domestic crude,\DRNR,12:00:00 EST,20:00:00,Russian Standard Time
DRSO,DATA\DRSO,drso,Argus RSO midday update,\DRSO,10:00:00 EST,15:00:00,GMT Standard Time
DRareEarths,DATA\DRareEarths,DRareEarths,Argus Rare Earths,\DRareEarths,18:40:00 EST,23:40:00,GMT Standard Time
DSNA,DATA\DSNA,dsna,Argus FMB North American Sulphur and Sulphuric Acid,\DSNA,22:59:00 EST,21:59:00,Central Standard Time
DSP,DATA\DAPPR,dsp,Argus Asia products,\DAPPR,10:00:00 EST,23:00:00,Singapore Standard Time
DSolvents,DATA\DSolvents,dsolvents,Argus DeWitt Aromatic Solvents,\DSolvents,23:30:00 EST,22:30:00,Central Standard Time
DSteelFeedstocks,DATA\DSteelFeedstocks,dsteel,Argus Steel Feedstocks data,\DSteelFeedstocks,17:00:00 EST,17:00:00,Eastern Standard Time
DSulAcid,DATA\DSulAcid,dsulacid,Argus FMB Sulphuric Acid,\DSulAcid,18:45:00 EST,23:45:00,GMT Standard Time
DSulphur,DATA\DSulphur,dsulphur,FMB Weekly Sulphur,\DSulphur,18:45:00 EST,23:45:00,GMT Standard Time
DSyntheticCoal,DATA\DSyntheticCoal,dsynthcoal,Argus Thermal Coal Synthetic Forward Curves,\DSyntheticCoal,21:00:00 EST,20:00:00,Central Standard Time
DTXDaily,DATA\DTXDaily,dtxdaily,Argus DeWitt Toluene and Xylenes Daily,\DTXDaily,21:00:00 EST,20:00:00,Central Standard Time
DTXWeekly,DATA\DTXWeekly,dtxweekly,Argus DeWitt Toluene Xylenes and Isomers / PET,\DTXWeekly,22:30:00 EST,22:30:00,Eastern Standard Time
DUMF,DATA\DUMF,dumf,Argus Ukranian Motor Fuels,\DUMF,12:00:00 EST,20:00:00,Russian Standard Time
DUSPTicker1330,DATA\DUSPTicker,DUSPTicker1330,Argus Spot Ticker (AST) 13:30,\DUSPTicker,15:00:00 EST,14:00:00,Central Standard Time
DUSPTicker1430,DATA\DUSPTicker,DUSPTicker1430,Argus Spot Ticker (AST) 14:30,\DUSPTicker,16:00:00 EST,15:00:00,Central Standard Time
DUSPTicker1600,DATA\DUSPTicker,DUSPTicker1600,Argus Spot Ticker (AST) 16:00,\DUSPTicker,17:30:00 EST,16:30:00,Central Standard Time
DUSWCPROD,DATA\DUSWCPROD,duswcprod,Argus US West Coast Products,\DUSWCPROD,21:00:00 EST,20:00:00,Central Standard Time
DWAFO,DATA\DWAFO,dwafo,Argus West Africa Oil,\DWAFO,10:00:00 EST,15:00:00,GMT Standard Time
DWax,DATA\DWax,dwax,Argus Global Waxes,\DWax,22:00:00 EST,22:00:00,Eastern Standard Time
Dferroalloys,DATA\Dferroalloys,dferroalloys ,Argus Ferro-Alloys,\Dferroalloys,20:00:00 EST,20:00:00,Eastern Standard Time
DfmbUreaM,DATA\DFMBUREAM,dfmbuream,Argus FMB Monthly Urea Outlook data,\DFMBUREAM,18:40:00 EST,23:40:00,GMT Standard Time
LatAm,DATA\DALM,dlm,Argus Latin Markets,\DALM,21:00:00 EST,20:00:00,Central Standard Time
USCoal,DATA\DCDR,dcu,Argus Coal Daily,\DCDR,20:00:00 EST,20:00:00,Eastern Standard Time
USEmiss,DATA\DADR,dusem,Argus Air Daily,\DADR,20:00:00 EST,20:00:00,Eastern Standard Time
USEthanol,DATA\DUSEthanol,duse,Argus US Ethanol,\DUSEthanol,21:00:00 EST,20:00:00,Central Standard Time
dgerfuel,DATA\DGERFUEL,dgerfuel,Argus Handel (German Fuels),\DGERFUEL,16:00:00 EST,16:00:00,Eastern Standard Time
