StudyYear|APIScale|APILevel|MinAPI|MaxAPI|Adj|SaveDate
2006|0|1|0|100|0|1998-02-04 10:37:00
2006|1|1|10|34|0.18|1998-02-04 10:37:00
2006|1|2|34.099998|40|0.1|1998-02-04 10:37:00
2006|1|3|40.099998|45|0|1998-02-04 10:37:00
2006|1|4|45.099998|50|-0.15|1998-02-04 10:37:00
2006|1|5|50.099998|60|-0.15|1998-02-04 10:37:00
2006|2|1|0|45|0|1998-02-04 10:37:00
2006|2|2|45.099998|70|-0.1|1998-02-04 10:37:00
2006|3|1|20|40|0.02|1998-02-04 10:37:00
2006|3|2|40.099998|45|0|1998-02-04 10:37:00
2006|3|3|45.099998|70|-0.15|1998-02-04 10:37:00
2006|4|1|20|34|0.15|1998-02-04 10:37:00
2006|4|2|34.099998|40|0|1998-02-04 10:37:00
2006|4|3|40.099998|45|0|1998-02-04 10:37:00
2006|4|4|45.099998|70|-0.15|1998-02-04 10:37:00
2006|5|1|20|35|0.15|1998-02-04 10:37:00
2006|5|2|35.099998|40|0|2005-03-16 09:49:00
2006|5|3|40.099998|45|0|1998-02-04 10:37:00
2006|5|4|45.099998|70|-0.15|1998-02-04 10:37:00
2006|6|1|10|34|0.25|2005-03-16 09:49:00
2006|6|2|34.099998|40|0.1|1998-02-04 10:37:00
2006|6|3|40.099998|70|0|1998-02-04 10:37:00
2006|7|1|5|30|0.12|1999-09-14 10:57:00
2006|7|2|30.1|40|0.1|1998-02-04 10:37:00
2006|7|3|40.099998|45|0|1998-02-04 10:37:00
2006|7|4|45.099998|70|-0.08|1998-02-04 10:37:00
2006|8|1|10|40|0.15|1998-02-04 10:37:00
2006|8|2|40.099998|45|0|1998-02-04 10:37:00
2006|8|3|45.099998|70|-0.15|1998-02-04 10:37:00
2006|9|1|10|34|0.2|1998-02-04 10:37:00
2006|9|2|34.099998|36|0.04|1998-02-04 10:37:00
2006|9|3|36.099998|40|0.02|1998-02-04 10:37:00
2006|9|4|40.099998|45|0|1998-02-04 10:37:00
2006|9|5|45.099998|70|-0.15|1998-02-04 10:37:00
2006|10|1|10|25|0.1|1998-02-04 10:37:00
2006|10|2|25.1|30|0.05|1998-02-04 10:37:00
2006|10|3|30.1|40|0|1998-02-04 10:37:00
2006|10|4|40.099998|60|0|1998-02-04 10:37:00
2006|10|5|60.099998|70|-0.1|1998-02-04 10:37:00
2008|0|1|0|100|0|2009-02-11 16:19:00
2008|1|1|10|34|0.15|2009-02-11 16:20:00
2008|1|2|34.099998|40|0.1|2009-02-11 16:20:00
2008|1|3|40.099998|45|0|2009-02-11 16:20:00
2008|1|4|45.099998|50|-0.15|2009-02-11 16:20:00
2008|1|5|50.099998|60|-0.15|2009-02-11 16:20:00
2008|2|1|0|45|0|2009-02-11 16:20:00
2008|2|2|45.099998|70|-0.1|2009-02-11 16:20:00
2008|3|1|20|40|0.02|2009-02-11 16:20:00
2008|3|2|40.099998|45|0|2009-02-11 16:20:00
2008|3|3|45.099998|70|-0.15|2009-02-11 16:20:00
2008|4|1|20|34|0.15|2009-02-11 16:20:00
2008|4|2|34.099998|40|0|2009-02-11 16:20:00
2008|4|3|40.099998|45|0|2009-02-11 16:20:00
2008|4|4|45.099998|70|-0.1|2009-02-11 16:20:00
2008|5|1|20|35|0.15|2009-02-11 16:20:00
2008|5|2|35.099998|40|0.02|2009-02-11 16:20:00
2008|5|3|40.099998|45|0|2009-02-11 16:20:00
2008|5|4|45.099998|70|-0.15|2009-02-11 16:20:00
2008|6|1|10|34|0.45|2009-02-11 16:20:00
2008|6|2|34.099998|40|0.1|2009-02-11 16:20:00
2008|6|3|40.099998|70|0|2009-02-11 16:20:00
2008|7|1|5|30|0.1|2009-02-11 16:20:00
2008|7|2|30.1|40|0.1|2009-02-11 16:20:00
2008|7|3|40.099998|45|0|2009-02-11 16:20:00
2008|7|4|45.099998|70|-0.15|2009-02-11 16:20:00
2008|8|1|10|40|0.15|2009-02-11 16:20:00
2008|8|2|40.099998|45|0|2009-02-11 16:20:00
2008|8|3|45.099998|70|-0.15|2009-02-11 16:20:00
2008|9|1|10|34|0.2|2009-02-11 16:20:00
2008|9|2|34.099998|36|0.04|2009-02-11 16:20:00
2008|9|3|36.099998|40|0.02|2009-02-11 16:20:00
2008|9|4|40.099998|45|0|2009-02-11 16:20:00
2008|9|5|45.099998|70|-0.15|2009-02-11 16:20:00
2008|10|1|10|25|0.15|2009-02-11 16:20:00
2008|10|2|25.1|30|0.15|2009-02-11 16:20:00
2008|10|3|30.1|40|0|2009-02-11 16:20:00
2008|10|4|40.099998|60|0|2009-02-11 16:20:00
2008|10|5|60.099998|70|-0.1|2009-02-11 16:20:00
2010|0|1|0|100|0|2011-09-29 09:29:00
2010|1|1|10|34|0.15|2011-09-29 09:29:00
2010|1|2|34.099998|40|0.1|2011-09-29 09:29:00
2010|1|3|40.099998|45|0|2011-09-29 09:29:00
2010|1|4|45.099998|50|-0.15|2011-09-29 09:29:00
2010|1|5|50.099998|60|-0.15|2011-09-29 09:29:00
2010|2|1|0|45|0|2011-09-29 09:29:00
2010|2|2|45.099998|70|-0.1|2011-09-29 09:29:00
2010|3|1|20|40|0.02|2011-09-29 09:29:00
2010|3|2|40.099998|45|0|2011-09-29 09:29:00
2010|3|3|45.099998|70|-0.15|2011-09-29 09:29:00
2010|4|1|20|34|0.15|2011-09-29 09:29:00
2010|4|2|34.099998|40|0|2011-09-29 09:29:00
2010|4|3|40.099998|45|0|2011-09-29 09:29:00
2010|4|4|45.099998|70|-0.1|2011-09-29 09:29:00
2010|5|1|20|35|0.15|2011-09-29 09:29:00
2010|5|2|35.099998|40|0.02|2011-09-29 09:29:00
2010|5|3|40.099998|45|0|2011-09-29 09:29:00
2010|5|4|45.099998|70|-0.15|2011-09-29 09:29:00
2010|6|1|10|34|0.45|2011-09-29 09:29:00
2010|6|2|34.099998|40|0.1|2011-09-29 09:29:00
2010|6|3|40.099998|70|0|2011-09-29 09:29:00
2010|7|1|5|30|0.1|2011-09-29 09:29:00
2010|7|2|30.1|40|0.1|2011-09-29 09:29:00
2010|7|3|40.099998|45|0|2011-09-29 09:29:00
2010|7|4|45.099998|70|-0.15|2011-09-29 09:29:00
2010|8|1|10|40|0.15|2011-09-29 09:29:00
2010|8|2|40.099998|45|0|2011-09-29 09:29:00
2010|8|3|45.099998|70|-0.15|2011-09-29 09:29:00
2010|9|1|10|34|0.2|2011-09-29 09:29:00
2010|9|2|34.099998|36|0.04|2011-09-29 09:29:00
2010|9|3|36.099998|40|0.02|2011-09-29 09:29:00
2010|9|4|40.099998|45|0|2011-09-29 09:29:00
2010|9|5|45.099998|70|-0.15|2011-09-29 09:29:00
2010|10|1|10|25|0.15|2011-09-29 09:29:00
2010|10|2|25.1|30|0.15|2011-09-29 09:29:00
2010|10|3|30.1|40|0|2011-09-29 09:29:00
2010|10|4|40.099998|60|0|2011-09-29 09:29:00
2010|10|5|60.099998|70|-0.1|2011-09-29 09:29:00
2012|0|1|0|100|0|2013-12-09 08:48:00
2012|1|1|10|34|0.15|2013-12-09 08:48:00
2012|1|2|34.099998|40|0.1|2013-12-09 08:48:00
2012|1|3|40.099998|45|0|2013-12-09 08:48:00
2012|1|4|45.099998|50|-0.15|2013-12-09 08:48:00
2012|1|5|50.099998|60|-0.15|2013-12-09 08:48:00
2012|2|1|0|45|0|2013-12-09 08:48:00
2012|2|2|45.099998|70|-0.1|2013-12-09 08:48:00
2012|3|1|20|40|0.02|2013-12-09 08:48:00
2012|3|2|40.099998|45|0|2013-12-09 08:48:00
2012|3|3|45.099998|70|-0.15|2013-12-09 08:48:00
2012|4|1|20|34|0.15|2013-12-09 08:48:00
2012|4|2|34.099998|40|0|2013-12-09 08:48:00
2012|4|3|40.099998|45|0|2013-12-09 08:48:00
2012|4|4|45.099998|70|-0.15|2013-12-09 08:48:00
2012|5|1|20|35|0.15|2013-12-09 08:48:00
2012|5|2|35.099998|40|0.02|2013-12-09 08:48:00
2012|5|3|40.099998|45|0|2013-12-09 08:48:00
2012|5|4|45.099998|70|-0.15|2013-12-09 08:48:00
2012|6|1|10|34|0.425|2013-12-09 08:48:00
2012|6|2|34.099998|40|0.1|2013-12-09 08:48:00
2012|6|3|40.099998|70|0|2013-12-09 08:48:00
2012|7|1|5|30|0.1|2013-12-09 08:48:00
2012|7|2|30.1|40|0.1|2013-12-09 08:48:00
2012|7|3|40.099998|45|0|2013-12-09 08:48:00
2012|7|4|45.099998|70|-0.15|2013-12-09 08:48:00
2012|8|1|10|40|0.15|2013-12-09 08:48:00
2012|8|2|40.099998|45|0|2013-12-09 08:48:00
2012|8|3|45.099998|70|-0.15|2013-12-09 08:48:00
2012|9|1|10|34|0.2|2013-12-09 08:48:00
2012|9|2|34.099998|36|0.04|2013-12-09 08:48:00
2012|9|3|36.099998|40|0.02|2013-12-09 08:48:00
2012|9|4|40.099998|45|0|2013-12-09 08:48:00
2012|9|5|45.099998|70|-0.15|2013-12-09 08:48:00
2012|10|1|10|25|0.15|2013-12-09 08:48:00
2012|10|2|25.1|30|0.15|2013-12-09 08:48:00
2012|10|3|30.1|40|0|2013-12-09 08:48:00
2012|10|4|40.099998|60|0|2013-12-09 08:48:00
2012|10|5|60.099998|70|-0.1|2013-12-09 08:48:00
