Country|EEF
ABU DHABI|0.1249
ARGENTINA|6.9600001E-2
ARUBA|0.1797
AUSTRALIA|0.2158
AUSTRIA|0.055
BAHRAIN|0.125
BELGIUM|6.8599999E-2
BOLIVIA|6.1700001E-2
BRAZIL|0.0184
BULGARIA|0.1187
CANADA|6.0899999E-2
CHILE|9.0700001E-2
CHINA|0.20389999
COLOMBIA|0.0403
CROATIA|8.3700001E-2
CYPRUS|
CZECH REP|0.18539999
DENMARK|0.17020001
DOMINICAN REP.|0.17
EGYPT|0.1077
FINLAND|9.8999999E-2
FRANCE|0.0174
GERMANY|0.14910001
GREECE|0.2079
HUNGARY|0.1132
INDIA|0.2066
INDONESIA|0.1596
IRELAND|0.19159999
ISRAEL|0.2349
ITALY|0.1277
IVORY COAST|7.9400003E-2
JAMAICA|0.17399999
JAPAN|0.1073
JORDAN|0.1726
KOREA|0.1259
KUWAIT|0.1653
Lithuania|0.0262
MACEDONIA|0.2079
MALAYSIA|0.1173
MEXICO|0.13590001
MOROCCO|0.21870001
NETHERLAND ANTILLES|
NETHERLANDS|0.147
NEW ZEALAND|0.0436
NICARAGUA|0.1497
NORWAY|6.0000003E-4
OMAN|0.1312
PAKISTAN|0.1086
PANAMA|7.4100003E-2
PERU|2.7899999E-2
PHILIPPINES|0.14480001
POLAND|0.2447
PORTUGAL|0.1418
QATAR|0.1249
ROMANIA|0.1285
RUSSIA|0.1079
SAUDI ARABIA|0.15790001
SINGAPORE|0.1575
SLOVAKIA|5.9999999E-2
SOUTH AFRICA|0.23720001
SPAIN|0.1167
SWEDEN|8.9999996E-3
SWITZERLAND|2.4000001E-3
TAIWAN|0.1684
THAILAND|0.1406
TRINIDAD|0.1197
TURKEY|0.1354
UK|0.1226
UKRAINE|9.7599998E-2
URUGUAY|0.0063
US|0.16599999
US VIRGIN ISLANDS|0.1797
VENEZUELA|0.0416
VIETNAM|7.6499999E-2
