           4           1
   70.00000       10.00000      0.8370000       350.0000       390.0000    
   400.0000       416.0000       433.0000       462.0000       510.0000    
   14.54355      0.0000000E+00  0.0000000E+00  0.0000000E+00  0.0000000E+00
  0.0000000E+00  0.0000000E+00  0.0000000E+00  0.0000000E+00  0.0000000E+00
   20.00000       10.27258       411.7052       12.81904    
