        1.906586255503407  -3.151218639841996E-001   1.440641821723560E-002
  -1.695409225530636E-004   7.011903718914930E-002  -2.932553360581310E-003
  -3.146705028880914E-005  -8.404675211541671E-005   1.123525106293655E-004
      -14.311301651657230        1.861161595124591  -5.502005420187751E-002
   7.493800226765245E-004   5.642882411786434E-001  -8.172265103489043E-003
  -3.601804205412520E-002   6.319958195544791E-004   3.654145528890517E-004
       -6.385622449431595   5.913456359398636E-001  -1.723333622605753E-002
   1.748645532355966E-004   2.240755681896115E-001  -1.746260386158402E-003
  -1.620846132581461E-002   2.695521778372387E-004   9.096494265615292E-005
   5.466341885103004E-001   3.069676225730336E-001  -7.789453463134422E-003
   1.053604343923387E-004  -6.954064680078108E-002  -7.188500577805596E-003
   2.032842779147096E-002  -7.227772192801431E-004   2.283406437790394E-004
       -9.625382530936607   9.335197881686250E-001  -2.767218253036496E-002
   2.746792559975107E-004   3.783979410780243E-001  -3.576814986069148E-003
  -2.667871098179440E-002   4.419235565262417E-004   1.574268670934520E-004
       -2.776128465568355        1.038876724163049   8.937448120921909E-003
  -6.583502547236722E-004  -2.540086440244786E-001  -6.370106612010224E-003
   4.626550727693714E-002  -1.742745147943781E-003   2.867881468374462E-004
       -7.886016660568981   9.057844646824176E-001  -3.296774398921744E-002
   4.007297442942580E-004   3.208180953955539E-001  -6.221040582673235E-003
  -1.478715243811875E-002   1.181069639324199E-004   2.014817384774593E-004
       -4.317303486062100   5.715401221456697E-001  -1.373304063724264E-002
   1.186265662297142E-004   2.641557979819065E-001  -5.653574886189740E-003
  -1.423318939985418E-003  -1.107843488313753E-004   7.370386629612659E-005
      -84.286054014373120       10.260465148836800  -3.586304749947041E-001
   3.941856218038836E-003        1.873978284430935  -1.353748030230651E-002
  -1.404786051214333E-001   2.284743232619058E-003   5.491022975008162E-004
       -5.088200491185281   5.509435670104708E-001  -1.585695875364172E-002
   1.482857098518397E-004   4.259246356653553E-001  -7.334241846369325E-003
  -2.771680829154021E-002   3.276688080697911E-004   3.317088243528048E-004
       56.404680645637200       -5.279771967832959   1.741154426940026E-001
  -2.001148724953153E-003  -9.694195457546383E-001   8.017103809754306E-003
   7.564056124392039E-002  -1.165966263122065E-003  -5.529964550312458E-004
       29.186477381891350       -1.930095115103365   7.259469381302924E-002
  -1.013318448201691E-003        1.319192727221133  -3.868154373966298E-002
  -9.711585919972501E-002   9.023015413612730E-004   1.860665440328532E-003
       12.682157915591710       -1.363699645525088   5.131563351938343E-002
  -6.034481294613680E-004   7.118410557248330E-001  -4.703861151511600E-004
  -7.944182043854263E-002   2.204349487261166E-003   1.617709999374936E-004
      -42.342194775262830        4.786733610740606  -1.553566846502568E-001
   1.585239608862429E-003   3.133508206492271E-001   1.853249332985600E-002
  -5.288887654347831E-002   1.305188525037546E-003  -4.879387087084039E-004
        5.889128494527740   3.226053875438033E-001  -2.564450897331084E-002
   2.686134182293192E-004       -1.538510420368331   4.093598980850393E-002
   7.063951620790809E-002  -3.736359559084922E-004  -1.652272622966024E-003
       -3.731006665308397   3.671664841067632E-001  -1.011730263106983E-002
   9.945426358203837E-005   1.529162544504913E-001  -6.316679190715262E-004
  -1.269913284284512E-002   2.225755147297361E-004   6.830357092894082E-005
       -8.942906487361256   9.903880485876895E-001  -2.588493596505864E-002
   2.440720277946374E-004        1.172191860641068  -1.637271504304059E-002
  -6.361706070451775E-002   6.988535055743476E-004   6.133365513221012E-004
      183.076452808268700      -15.598809608433930   4.245370406937872E-001
  -3.665355343764708E-003       -4.959771063163571   5.140356451493652E-002
   3.562313034341159E-001  -5.207303445674978E-003  -2.408153166425172E-003
33.81,-0.3309,0.002128
16.90,-0.02038,-0.001355
28.13,-0.4218,0.007057
0.,-0.014,0.12,0.027,-0.053,0.10,0.030,-0.01,0.025,-0.042,0.,0.04,0.03,
-0.034,-0.031,-0.037,-0.01,-0.035,-0.027
5.0,8.0
